,x1,x2,x3,x4,x5,x6,x7,x8,x9,x10,y
0,4,2,2,1,3,4,2,3,4,2,0
1,1,2,2,3,4,5,2,2,2,3,0
2,1,3,5,4,3,3,3,3,2,1,0
3,3,2,2,1,3,2,3,2,3,4,0
4,3,3,2,3,3,3,2,3,2,1,0
5,2,3,1,2,2,2,2,2,2,4,0
6,3,4,3,4,3,2,2,1,2,3,0
7,4,2,1,4,3,4,1,3,4,2,0
8,2,2,2,2,3,3,2,3,1,2,0
9,2,5,2,3,2,5,2,2,2,2,0
10,4,1,4,3,2,3,2,3,2,2,0
11,1,2,2,4,3,4,1,4,4,2,0
12,3,3,3,3,3,3,2,4,3,1,0
13,5,3,1,4,1,2,1,3,4,3,0
14,3,1,3,2,2,4,4,3,4,2,0
15,4,3,2,4,2,2,3,1,2,3,0
16,3,3,4,2,2,2,3,1,3,4,0
17,3,3,2,1,4,2,4,4,3,1,0
18,3,4,3,2,2,1,2,2,4,3,0
19,3,2,4,1,4,3,4,2,3,3,0
20,3,4,3,4,3,4,3,3,2,2,0
21,2,2,3,4,2,2,3,2,4,3,0
22,2,3,3,3,3,1,2,4,4,4,0
23,2,3,3,3,1,2,4,2,3,3,0
24,3,3,1,3,2,4,5,3,2,3,0
25,1,5,2,1,3,2,4,2,2,3,0
26,5,2,3,2,1,2,3,3,2,4,0
27,1,3,3,1,2,3,1,2,1,1,0
28,4,3,2,2,3,3,3,1,5,2,0
29,1,4,4,2,1,5,5,3,3,2,0
30,2,3,2,1,4,1,3,3,3,2,0
31,3,2,3,3,3,5,2,4,2,2,0
32,4,1,2,3,4,4,2,3,3,2,0
33,1,2,4,2,2,5,5,3,3,3,0
34,3,3,4,2,2,3,5,3,4,4,0
35,1,1,3,2,3,3,2,3,2,3,0
36,2,1,4,5,3,1,2,3,5,2,0
37,2,3,1,2,3,3,3,2,3,2,0
38,1,4,3,2,3,2,3,2,3,1,0
39,2,3,2,3,1,2,3,2,1,4,0
40,3,4,4,2,2,2,4,3,3,2,0
41,2,2,4,3,3,3,2,2,4,2,0
42,3,4,3,2,5,4,3,2,2,3,0
43,2,1,3,2,2,2,4,3,4,2,0
44,1,3,3,3,3,3,2,2,1,2,0
45,1,2,4,2,1,2,3,2,5,4,0
46,3,2,2,2,3,3,4,2,2,2,0
47,3,3,3,4,5,2,2,5,3,3,0
48,3,3,3,1,3,2,1,3,3,3,0
49,5,4,3,4,3,2,1,2,4,1,0
50,3,4,3,3,1,2,3,4,3,3,0
51,3,3,3,3,3,4,1,2,3,3,0
52,3,2,3,1,3,4,4,4,1,3,0
53,3,3,3,2,2,3,4,1,4,2,0
54,2,3,3,2,4,3,2,2,3,3,0
55,4,4,4,2,2,3,1,2,3,2,0
56,2,1,4,4,2,3,3,2,1,1,0
57,3,3,3,3,2,3,3,4,2,4,0
58,2,4,2,3,3,3,2,1,3,3,0
59,2,3,2,4,4,3,2,4,4,3,0
60,2,2,2,3,3,4,2,2,3,4,0
61,5,2,3,5,2,3,2,2,4,1,0
62,2,5,2,4,3,2,2,4,4,4,0
63,3,4,3,3,3,2,4,3,3,1,0
64,3,2,3,4,2,3,3,3,1,4,0
65,3,3,3,3,3,1,2,2,2,3,0
66,1,2,2,3,4,3,2,3,2,2,0
67,3,3,4,3,3,4,4,3,1,2,0
68,2,4,3,4,3,2,4,4,1,3,0
69,2,3,3,4,1,3,5,3,3,4,0
70,3,1,3,5,2,2,2,3,3,5,0
71,1,3,3,3,2,5,4,2,3,2,0
72,1,3,1,2,3,2,3,3,3,3,0
73,2,2,3,3,2,3,2,1,3,3,0
74,3,3,3,5,1,1,4,3,3,2,0
75,3,2,5,2,2,2,3,3,1,3,0
76,3,5,2,1,2,1,4,3,2,2,0
77,3,1,3,2,3,3,2,2,2,2,0
78,4,3,2,3,4,2,3,4,2,1,0
79,2,2,2,3,4,3,2,2,3,2,0
80,5,4,4,1,5,3,2,3,3,3,0
81,2,2,3,3,1,3,2,3,2,3,0
82,2,4,1,3,1,3,3,2,3,4,0
83,2,5,2,3,3,2,2,4,2,2,0
84,3,3,2,1,1,5,1,2,2,4,0
85,1,3,2,1,3,3,3,3,2,2,0
86,3,3,3,4,3,1,4,3,2,2,0
87,2,3,5,3,3,3,2,3,2,2,0
88,4,3,1,1,3,3,2,1,2,4,0
89,3,2,2,3,2,2,1,2,3,3,0
90,3,3,3,3,2,3,3,3,2,1,0
91,3,2,2,2,2,3,4,4,2,3,0
92,1,3,2,3,2,5,4,3,1,3,0
93,2,3,3,2,2,2,2,2,3,2,0
94,3,3,3,4,1,3,3,1,3,1,0
95,1,4,2,2,2,3,2,2,2,2,0
96,1,4,2,3,1,3,1,4,3,2,0
97,5,2,3,1,2,3,1,4,3,3,0
98,3,3,1,3,2,3,3,3,2,3,0
99,3,3,2,2,3,3,2,4,2,2,0
100,2,3,4,2,3,2,3,1,4,3,0
101,1,2,3,2,4,2,2,1,4,2,0
102,2,4,4,3,1,3,2,2,3,1,0
103,3,3,1,4,3,3,3,4,2,3,0
104,3,2,4,3,2,5,3,3,3,2,0
105,4,1,2,2,2,1,2,3,3,4,0
106,4,3,2,1,2,2,3,2,2,2,0
107,3,5,2,2,2,3,2,3,3,3,0
108,2,2,3,1,4,2,3,3,2,3,0
109,5,4,4,2,2,3,4,2,3,1,0
110,4,2,2,4,3,2,1,2,3,4,0
111,3,2,2,1,1,2,4,2,4,3,0
112,3,3,3,3,1,1,3,3,2,2,0
113,2,2,3,3,5,2,1,2,1,4,0
114,3,5,1,2,4,3,3,3,3,3,0
115,2,3,4,3,3,2,4,1,1,3,0
116,2,3,5,2,2,2,4,3,3,2,0
117,4,3,3,4,2,1,2,2,3,2,0
118,1,3,3,2,4,2,3,2,4,3,0
119,2,2,1,4,2,2,1,3,3,2,0
120,3,3,2,2,2,3,2,3,4,3,0
121,2,4,4,4,2,2,1,5,1,3,0
122,4,3,2,3,2,3,2,3,3,4,0
123,2,4,3,1,3,3,1,2,3,2,0
124,3,3,3,2,3,4,3,2,3,3,0
125,4,4,3,3,3,2,2,4,5,3,0
126,2,2,3,3,4,4,2,2,2,4,0
127,1,2,4,3,2,2,1,2,3,3,0
128,2,4,3,2,3,3,4,3,4,2,0
129,2,2,3,4,1,3,4,2,3,3,0
130,3,4,4,1,3,3,1,2,1,4,0
131,2,4,3,3,1,4,3,4,3,1,0
132,3,2,2,3,2,3,2,4,2,4,0
133,2,1,2,3,2,2,3,2,4,2,0
134,2,4,1,3,3,2,3,4,1,3,0
135,2,4,3,2,4,3,4,3,2,1,0
136,3,4,3,2,3,2,3,3,3,3,0
137,3,3,3,3,3,3,3,2,2,3,0
138,3,3,2,2,3,2,2,1,2,3,0
139,2,3,3,2,2,4,3,2,1,2,0
140,4,3,3,2,2,3,3,3,1,3,0
141,3,4,2,2,2,3,1,3,2,3,0
142,3,3,1,2,2,2,2,1,1,3,0
143,1,3,2,4,2,3,4,2,1,3,0
144,3,3,4,2,2,3,2,2,5,2,0
145,2,3,4,3,4,2,3,2,2,3,0
146,3,3,4,4,3,2,5,1,4,3,0
147,3,3,1,4,4,4,2,2,3,2,0
148,3,2,2,2,2,5,3,1,1,3,0
149,3,3,2,4,4,2,3,4,2,4,0
150,2,2,2,2,3,2,2,3,3,4,0
151,4,2,3,2,3,2,1,3,2,2,0
152,1,4,3,3,4,3,3,3,5,3,0
153,3,3,2,1,3,2,2,1,3,2,0
154,3,3,2,5,2,1,2,3,1,2,0
155,3,4,4,3,3,2,4,2,2,2,0
156,4,3,4,2,3,3,2,4,3,3,0
157,4,3,1,2,3,1,2,2,3,3,0
158,3,4,3,3,3,3,2,3,2,4,0
159,3,3,3,2,1,2,2,2,3,2,0
160,1,2,3,4,3,3,2,3,2,5,0
161,4,3,3,4,3,2,2,3,4,2,0
162,3,3,2,3,3,3,2,4,3,1,0
163,3,2,3,2,2,1,3,4,2,3,0
164,3,3,3,3,2,2,2,2,1,3,0
165,1,4,4,2,2,2,2,1,3,4,0
166,3,2,2,1,4,4,2,1,3,3,0
167,3,3,2,2,2,2,2,4,2,1,0
168,2,3,3,3,2,4,2,1,3,4,0
169,5,3,3,3,2,3,1,4,2,3,0
170,1,2,3,3,3,4,3,3,3,2,0
171,2,2,3,2,3,2,2,3,3,2,0
172,3,4,2,4,1,1,3,4,1,3,0
173,2,3,2,3,4,2,2,1,3,2,0
174,1,3,2,3,2,3,3,3,2,2,0
175,1,2,2,1,4,3,3,4,2,2,0
176,4,2,2,2,3,3,1,3,3,3,0
177,3,2,3,2,3,3,2,2,2,4,0
178,4,2,3,4,1,1,1,4,2,1,0
179,3,2,2,2,3,3,2,5,3,1,0
180,3,2,3,3,2,3,4,1,3,3,0
181,4,3,2,1,2,2,3,3,2,4,0
182,3,2,3,2,3,2,1,2,2,3,0
183,2,1,3,1,2,1,2,4,3,3,0
184,2,3,2,3,4,3,2,2,2,2,0
185,2,3,2,2,3,3,3,3,5,3,0
186,1,1,4,4,3,3,1,3,4,2,0
187,1,4,1,3,5,3,4,3,4,1,0
188,4,1,2,5,5,4,3,1,2,1,0
189,2,3,1,3,2,2,2,3,1,3,0
190,2,2,1,4,2,3,1,1,4,2,0
191,3,2,4,3,2,1,1,1,2,4,0
192,2,4,4,2,4,2,2,2,4,4,0
193,4,1,1,4,2,2,2,3,2,2,0
194,4,2,2,5,4,1,3,3,2,1,0
195,5,3,3,3,2,1,2,1,1,2,0
196,3,3,2,4,2,2,2,3,2,4,0
197,4,4,3,2,3,2,3,4,3,1,0
198,2,4,3,2,2,2,3,2,3,3,0
199,2,3,1,3,3,4,2,2,2,2,0
200,3,3,3,3,3,1,2,2,2,3,0
201,4,3,3,3,2,4,1,4,1,3,0
202,3,4,3,1,2,3,3,3,3,2,0
203,4,2,2,2,2,2,3,3,4,4,0
204,2,3,4,2,3,4,3,2,1,3,0
205,3,1,3,4,2,2,2,3,3,4,0
206,3,1,3,2,3,1,2,2,3,2,0
207,4,2,3,2,2,3,2,3,3,3,0
208,2,5,3,3,3,3,3,3,3,4,0
209,3,4,3,5,3,2,2,2,4,2,0
210,2,2,4,2,3,3,1,3,2,4,0
211,4,2,3,1,2,2,1,2,2,3,0
212,2,2,3,3,3,3,3,3,3,2,0
213,3,1,3,3,4,2,2,3,4,3,0
214,3,3,5,2,4,4,4,1,2,2,0
215,1,3,2,3,2,3,4,3,2,3,0
216,1,1,1,3,5,3,4,1,3,2,0
217,3,1,4,2,5,1,2,1,5,2,0
218,4,2,2,2,2,4,4,2,2,3,0
219,2,3,3,1,2,3,3,2,3,2,0
220,3,1,1,4,3,3,3,2,3,3,0
221,3,2,2,3,4,3,3,2,3,2,0
222,3,2,4,4,3,2,2,3,3,3,0
223,2,2,3,2,2,1,2,4,2,4,0
224,1,5,1,2,4,1,3,3,2,1,0
225,3,3,3,4,2,4,3,3,3,2,0
226,3,2,2,3,4,4,4,3,2,4,0
227,2,3,3,2,3,2,2,2,3,2,0
228,3,4,1,4,4,3,3,3,4,3,0
229,3,2,2,3,2,5,4,4,2,3,0
230,3,4,3,4,1,3,2,2,3,2,0
231,2,2,4,3,2,4,1,2,3,4,0
232,3,4,3,2,3,1,3,2,3,3,0
233,2,3,3,1,5,3,3,3,4,1,0
234,3,3,3,2,2,4,2,4,4,3,0
235,2,2,3,1,3,2,2,4,3,3,0
236,3,2,2,2,3,4,2,2,1,3,0
237,3,3,4,1,2,2,2,3,2,3,0
238,4,4,3,2,1,2,3,3,3,2,0
239,2,3,2,1,5,2,3,4,1,2,0
240,3,1,2,2,3,2,2,3,4,2,0
241,2,1,1,1,3,4,3,3,2,1,0
242,2,2,2,4,3,1,3,4,5,1,0
243,2,3,3,3,3,1,2,3,2,3,0
244,1,2,2,4,4,2,3,3,1,3,0
245,4,4,3,3,4,2,1,3,3,2,0
246,5,2,2,3,3,2,2,2,3,2,0
247,3,2,3,4,2,3,2,2,1,5,0
248,2,4,3,5,2,1,1,2,3,4,0
249,2,5,2,2,2,2,3,1,2,3,0
250,3,1,1,3,3,1,3,4,2,3,0
251,3,2,4,1,3,2,2,2,2,3,0
252,2,4,2,3,1,3,3,3,3,2,0
253,1,3,2,4,3,4,4,2,3,3,0
254,2,1,2,2,4,4,3,2,4,2,0
255,4,2,1,4,2,3,2,2,2,3,0
256,1,5,2,3,4,2,4,3,2,3,0
257,3,3,2,3,4,2,4,2,2,2,0
258,2,2,4,3,1,3,1,3,2,3,0
259,2,4,2,2,3,2,3,2,2,3,0
260,3,2,2,3,3,3,2,2,2,2,0
261,3,2,4,2,3,3,3,3,1,3,0
262,4,4,2,2,5,2,2,1,4,2,0
263,2,4,2,1,2,2,3,1,3,3,0
264,5,2,5,2,2,4,3,1,2,3,0
265,1,2,5,2,2,4,3,3,2,1,0
266,1,2,3,2,3,4,3,4,3,2,0
267,2,1,2,2,3,4,3,2,3,3,0
268,2,1,4,2,2,1,5,1,3,2,0
269,1,3,3,2,3,2,3,3,2,4,0
270,3,2,4,2,3,3,2,3,4,3,0
271,4,2,3,2,2,2,1,2,3,2,0
272,1,3,3,3,1,2,3,4,3,3,0
273,2,2,3,3,3,1,2,2,3,5,0
274,2,4,4,2,3,2,5,3,2,2,0
275,3,3,4,3,3,4,2,1,3,3,0
276,2,2,2,3,1,5,2,2,2,2,0
277,2,3,3,4,3,3,3,1,4,2,0
278,1,3,1,1,3,3,3,2,3,4,0
279,2,2,3,2,2,4,2,4,1,2,0
280,3,2,3,3,4,2,3,2,3,4,0
281,3,3,2,1,2,1,4,3,3,3,0
282,3,3,4,1,4,2,3,4,3,4,0
283,3,2,3,5,1,2,1,4,2,3,0
284,3,4,2,4,2,3,4,2,2,3,0
285,3,3,2,2,3,3,2,3,2,4,0
286,3,2,3,2,2,1,3,3,3,4,0
287,2,3,2,2,3,4,4,1,2,3,0
288,4,2,4,2,4,2,3,1,3,2,0
289,3,2,3,2,4,3,5,3,2,3,0
290,2,4,2,2,2,2,2,4,3,1,0
291,4,3,4,1,3,1,5,1,1,2,0
292,3,2,2,4,3,3,3,3,2,2,0
293,1,4,3,2,2,2,2,3,2,3,0
294,4,4,1,3,4,3,4,2,1,1,0
295,2,4,2,3,4,3,2,4,3,4,0
296,3,3,3,3,2,2,4,2,3,2,0
297,1,2,2,3,2,4,3,4,1,2,0
298,4,3,3,1,3,3,2,1,2,1,0
299,3,1,2,2,2,4,3,2,2,5,0
300,2,2,3,2,3,2,2,2,3,4,0
301,2,1,3,4,4,2,2,1,2,2,0
302,4,3,1,1,3,4,3,2,3,3,0
303,5,2,3,2,2,4,3,3,1,2,0
304,2,3,3,3,2,3,4,4,1,2,0
305,3,3,4,4,3,4,2,2,4,3,0
306,3,3,3,3,1,2,3,4,3,1,0
307,3,3,3,3,1,2,2,2,2,2,0
308,1,4,3,2,4,4,4,4,3,4,0
309,2,3,3,2,2,2,3,2,3,2,0
310,1,4,2,4,3,2,2,2,2,2,0
311,2,2,4,4,3,1,2,4,2,3,0
312,1,2,3,3,2,3,3,2,3,3,0
313,3,3,3,1,3,3,2,1,2,4,0
314,5,2,3,3,4,3,4,2,2,3,0
315,2,3,3,4,3,4,2,3,2,3,0
316,4,2,4,2,4,2,2,2,1,4,0
317,4,3,3,4,2,5,3,2,1,1,0
318,3,2,4,2,2,3,2,3,4,2,0
319,4,1,3,4,3,3,1,2,4,3,0
320,2,3,4,1,2,4,2,3,3,3,0
321,3,4,1,5,2,5,2,4,3,3,0
322,2,1,2,3,2,3,2,2,3,3,0
323,3,1,2,2,2,2,4,2,3,4,0
324,2,4,3,2,2,2,2,4,2,3,0
325,4,2,5,3,1,4,2,3,4,1,0
326,2,4,2,4,2,2,4,1,2,1,0
327,2,4,2,2,2,2,2,3,3,2,0
328,3,2,3,3,3,3,4,2,2,2,0
329,3,1,5,2,3,3,4,4,2,3,0
330,2,3,4,1,2,3,3,3,4,2,0
331,3,2,3,4,3,3,3,4,3,3,0
332,4,3,4,3,1,2,3,3,4,2,0
333,3,2,1,2,3,2,3,1,3,3,0
334,2,3,2,1,3,1,2,4,2,3,0
335,3,3,2,4,3,3,2,1,2,2,0
336,4,1,2,2,3,3,4,2,2,4,0
337,3,3,3,1,2,1,3,4,4,3,0
338,3,2,3,2,3,3,3,5,3,2,0
339,2,2,2,3,3,3,2,3,3,2,0
340,3,2,3,3,3,3,3,2,3,3,0
341,2,2,3,2,3,2,2,3,3,4,0
342,2,2,2,1,1,2,1,4,3,1,0
343,4,3,4,3,4,3,4,1,2,2,0
344,4,2,3,3,3,2,2,5,3,2,0
345,3,2,3,2,3,4,2,2,5,4,0
346,2,3,4,1,2,3,3,1,3,1,0
347,3,2,3,3,5,4,2,2,5,4,0
348,2,2,1,2,2,3,3,3,2,3,0
349,3,3,3,2,2,1,1,2,2,3,0
350,3,3,4,2,1,4,3,3,2,2,0
351,4,2,3,3,2,4,2,3,1,2,0
352,3,2,4,2,3,2,2,2,2,3,0
353,3,3,1,2,1,1,2,3,1,2,0
354,2,2,2,3,1,2,4,2,3,5,0
355,1,4,3,3,1,3,2,1,4,2,0
356,5,3,1,5,4,4,2,4,4,1,0
357,4,2,4,2,2,3,2,2,1,3,0
358,2,4,2,2,1,4,3,4,3,4,0
359,4,2,3,4,2,4,2,3,3,4,0
360,3,3,2,3,2,1,3,1,2,2,0
361,3,3,2,2,1,1,2,3,4,2,0
362,3,4,3,2,3,2,2,2,2,2,0
363,2,2,5,4,3,2,3,3,5,2,0
364,3,4,4,3,1,3,5,3,2,2,0
365,4,2,2,4,4,1,3,3,2,3,0
366,2,2,3,2,3,2,4,3,1,3,0
367,2,3,2,2,2,2,2,3,4,4,0
368,2,3,2,3,2,2,4,3,3,3,0
369,2,3,1,3,3,2,3,4,3,2,0
370,4,3,4,2,2,2,3,2,2,3,0
371,2,4,4,4,3,2,4,5,2,1,0
372,2,3,3,3,1,2,2,2,2,4,0
373,1,4,2,4,3,4,4,2,4,2,0
374,1,2,2,2,2,3,1,3,2,3,0
375,3,2,3,4,2,3,3,4,2,2,0
376,3,3,4,4,3,3,4,4,2,3,0
377,3,2,2,1,5,3,2,1,3,3,0
378,3,1,3,3,2,3,4,1,2,4,0
379,3,2,3,2,4,3,2,3,1,3,0
380,2,4,4,3,2,3,3,1,2,1,0
381,1,3,2,3,4,3,1,3,2,2,0
382,2,2,1,2,3,2,3,4,1,4,0
383,2,2,2,2,1,2,4,2,2,2,0
384,2,2,4,3,3,2,2,2,2,2,0
385,4,1,2,4,3,3,1,2,1,3,0
386,1,3,3,2,3,4,3,4,2,4,0
387,3,2,3,2,3,3,2,4,3,4,0
388,3,4,2,3,3,2,3,2,3,2,0
389,3,2,2,3,3,1,3,4,2,3,0
390,3,3,3,2,3,4,1,2,2,3,0
391,2,3,3,3,5,1,2,3,3,2,0
392,3,3,3,1,3,2,3,2,3,2,0
393,3,2,1,2,3,4,2,4,3,3,0
394,5,2,2,3,3,3,2,4,2,3,0
395,3,1,2,1,3,1,3,4,2,1,0
396,2,3,4,4,4,1,2,1,3,2,0
397,1,3,4,2,3,3,3,2,2,3,0
398,2,2,3,2,2,1,3,2,2,2,0
399,2,3,2,2,3,3,4,3,2,2,0
400,2,2,2,4,2,2,1,3,3,3,0
401,1,2,2,3,3,3,3,2,2,4,0
402,2,2,2,3,2,2,2,4,2,4,0
403,2,3,3,4,1,2,2,3,4,3,0
404,3,3,4,3,2,3,2,2,3,3,0
405,2,2,3,5,3,2,2,2,2,2,0
406,3,3,3,3,3,5,3,2,2,2,0
407,2,2,2,2,3,3,1,2,3,2,0
408,2,3,3,3,1,5,1,4,4,3,0
409,4,4,2,4,2,4,2,3,3,3,0
410,1,1,3,2,3,2,2,4,1,2,0
411,2,3,4,3,3,3,2,1,2,2,0
412,2,3,2,3,2,4,3,2,4,2,0
413,2,2,3,2,3,5,3,2,3,3,0
414,2,3,1,2,2,1,2,3,1,4,0
415,2,3,1,1,1,2,2,3,3,3,0
416,2,3,4,2,3,3,4,2,2,2,0
417,2,3,4,4,1,1,5,2,2,2,0
418,5,1,3,2,4,3,2,3,4,4,0
419,2,1,4,2,3,2,3,3,2,3,0
420,1,3,2,2,2,2,2,4,2,4,0
421,2,4,3,3,1,3,2,2,2,2,0
422,3,2,2,3,1,2,3,4,3,4,0
423,3,4,5,2,4,1,3,3,3,2,0
424,2,2,3,4,3,3,3,3,3,1,0
425,3,5,3,3,4,3,3,3,3,4,0
426,1,4,4,4,2,2,3,4,3,3,0
427,3,2,3,2,3,1,1,2,2,2,0
428,3,2,3,2,3,2,4,2,3,3,0
429,1,3,3,3,4,4,3,2,1,4,0
430,1,2,3,4,5,1,3,1,5,4,0
431,2,3,1,3,2,2,1,1,3,3,0
432,2,3,3,4,4,3,3,2,2,3,0
433,4,3,4,2,1,3,4,1,4,3,0
434,2,2,3,3,2,2,2,3,2,3,0
435,2,5,3,2,2,3,2,4,2,3,0
436,2,2,2,1,2,2,4,3,2,3,0
437,1,1,3,3,2,3,3,2,4,3,0
438,1,3,4,3,3,3,2,3,3,3,0
439,3,3,3,2,3,1,2,3,3,4,0
440,2,2,3,3,1,4,2,3,1,3,0
441,2,3,2,1,1,2,3,2,2,2,0
442,4,3,3,4,5,3,4,2,2,4,0
443,3,1,3,4,2,3,4,3,5,1,0
444,3,3,2,2,2,3,2,2,2,1,0
445,2,3,2,2,2,4,3,3,3,2,0
446,2,4,4,2,3,4,2,2,4,2,0
447,3,3,3,4,3,2,1,2,3,1,0
448,3,1,3,1,2,2,3,4,1,2,0
449,2,2,2,2,2,2,2,5,2,2,0
450,2,2,2,1,3,4,2,3,4,2,0
451,1,3,4,3,2,3,4,3,4,3,0
452,2,1,3,3,2,3,4,2,3,3,0
453,4,3,2,2,2,3,2,2,2,2,0
454,3,3,3,2,3,2,3,2,3,4,0
455,3,1,3,3,3,2,3,3,2,3,0
456,2,1,4,2,2,3,3,3,3,4,0
457,3,4,3,2,3,2,3,4,3,3,0
458,5,3,2,3,4,3,2,2,3,2,0
459,2,2,2,1,1,2,3,2,3,2,0
460,2,4,3,2,3,3,2,3,4,3,0
461,3,2,2,4,3,2,4,3,4,2,0
462,3,3,3,2,3,2,1,3,2,2,0
463,5,3,2,1,4,2,2,2,1,4,0
464,4,1,3,1,2,4,2,5,3,2,0
465,2,2,4,4,1,1,2,4,3,2,0
466,4,1,2,3,2,3,2,3,2,2,0
467,2,2,4,2,1,2,4,3,2,3,0
468,1,1,3,3,1,3,2,4,4,3,0
469,3,5,3,1,2,3,4,2,3,3,0
470,2,3,1,2,3,3,3,2,3,3,0
471,1,1,3,1,4,4,2,3,3,2,0
472,3,3,4,3,3,4,3,2,3,3,0
473,3,2,3,2,4,3,1,3,4,3,0
474,2,3,2,2,2,2,3,3,3,2,0
475,3,2,3,2,3,3,2,4,2,3,0
476,2,4,3,2,4,2,3,3,2,1,0
477,3,3,2,2,2,3,2,3,4,2,0
478,3,2,4,3,1,1,3,2,3,2,0
479,3,3,4,3,3,1,4,3,3,2,0
480,3,2,3,3,1,2,1,3,3,2,0
481,3,3,3,2,1,3,2,4,3,3,0
482,2,2,2,2,4,3,3,4,2,4,0
483,4,2,2,2,1,3,2,3,3,2,0
484,1,3,2,3,2,3,3,3,4,3,0
485,2,3,4,1,3,5,3,1,4,3,0
486,3,4,2,3,3,2,3,3,3,3,0
487,2,2,4,3,2,2,3,3,2,3,0
488,1,4,3,2,2,3,1,2,2,1,0
489,3,1,3,4,3,2,2,3,3,2,0
490,1,2,3,3,4,3,3,4,4,3,0
491,2,2,2,4,1,3,2,2,2,4,0
492,2,3,1,3,2,4,2,3,2,3,0
493,2,3,3,3,3,3,2,4,2,2,0
494,5,3,4,5,3,2,4,3,4,1,0
495,3,3,2,1,3,2,4,2,1,2,0
496,1,3,5,2,3,1,2,4,4,4,0
497,2,3,2,3,2,1,3,4,3,4,0
498,3,2,2,2,1,4,3,3,3,4,0
499,2,2,2,2,2,2,2,2,3,3,0
500,2,1,2,3,2,4,4,2,3,5,0
501,4,2,3,4,3,2,2,4,3,3,0
502,2,2,2,2,3,2,5,2,2,1,0
503,3,5,3,3,3,3,3,3,3,3,0
504,3,3,1,2,2,2,3,3,2,1,0
505,3,4,3,2,3,3,3,2,2,2,0
506,2,4,4,3,2,5,3,4,3,3,0
507,2,2,4,2,1,3,1,2,4,4,0
508,2,2,3,2,2,4,3,2,3,2,0
509,3,2,3,3,3,4,3,2,2,4,0
510,2,2,3,5,2,3,3,3,2,3,0
511,3,4,3,4,2,4,2,3,3,1,0
512,3,4,3,2,2,3,2,3,3,3,0
513,3,4,2,2,2,3,2,1,4,4,0
514,2,1,2,2,2,3,2,2,2,3,0
515,2,2,2,3,4,4,1,2,2,2,0
516,2,4,2,1,3,3,1,4,2,1,0
517,4,3,2,4,3,1,1,4,3,3,0
518,3,2,3,1,2,1,3,5,2,2,0
519,2,1,3,1,2,3,3,1,3,4,0
520,2,2,3,2,1,2,3,2,2,3,0
521,3,2,3,2,1,5,2,3,2,2,0
522,4,4,2,4,1,3,1,2,1,3,0
523,3,3,5,2,3,2,3,2,2,3,0
524,3,2,2,2,2,3,3,3,1,1,0
525,4,1,4,4,3,4,4,4,3,1,0
526,5,5,2,2,1,1,2,3,2,2,0
527,5,2,3,5,2,2,4,2,2,2,0
528,4,4,3,3,3,3,4,4,2,3,0
529,2,3,2,3,3,3,2,2,2,3,0
530,2,2,3,2,4,3,4,2,4,3,0
531,3,1,3,3,3,3,3,2,2,3,0
532,4,2,2,5,3,1,3,2,4,3,0
533,4,3,3,2,3,4,3,2,2,2,0
534,3,3,3,4,4,3,3,3,2,1,0
535,2,3,2,3,3,2,2,2,3,2,0
536,3,3,3,2,2,2,3,2,2,2,0
537,3,4,3,5,2,2,3,3,2,2,0
538,3,2,3,1,2,3,1,3,5,2,0
539,4,3,3,3,3,1,5,4,3,3,0
540,1,2,4,3,1,3,3,3,3,2,0
541,2,2,2,4,2,2,2,3,3,3,0
542,4,2,4,3,3,2,3,4,3,3,0
543,2,3,2,1,2,3,3,3,3,2,0
544,2,3,3,3,1,3,2,3,3,2,0
545,3,2,2,2,3,2,3,3,3,2,0
546,4,3,3,2,4,1,4,1,3,3,0
547,3,2,2,5,2,2,3,3,2,2,0
548,3,3,3,3,3,2,3,3,2,2,0
549,1,2,2,5,3,3,2,3,1,2,0
550,2,1,3,2,3,1,1,3,4,3,0
551,1,3,3,3,3,2,2,2,2,1,0
552,2,2,3,3,1,1,2,2,1,2,0
553,2,4,3,3,2,1,3,3,4,2,0
554,3,2,3,2,2,3,5,4,2,2,0
555,1,3,3,2,2,2,1,3,2,1,0
556,2,3,3,3,3,3,3,2,3,3,0
557,4,3,3,1,3,3,2,4,2,2,0
558,3,2,3,2,3,3,2,4,5,2,0
559,4,2,4,2,2,2,5,3,4,2,0
560,2,4,1,3,3,1,3,1,3,3,0
561,2,3,2,2,3,1,2,3,3,3,0
562,2,4,2,1,2,2,3,4,2,2,0
563,3,2,2,2,2,1,2,4,4,2,0
564,2,3,2,5,2,1,4,3,2,2,0
565,3,1,3,4,3,3,2,3,2,2,0
566,2,2,3,4,3,4,3,3,2,2,0
567,3,2,1,1,2,4,5,5,3,2,0
568,3,2,3,2,1,3,1,3,3,3,0
569,3,2,3,4,2,3,3,4,2,2,0
570,3,3,1,3,2,4,2,3,2,3,0
571,2,2,2,3,3,2,3,2,2,1,0
572,2,2,2,3,2,2,5,1,2,2,0
573,2,2,4,2,2,4,5,4,4,2,0
574,1,4,3,4,3,3,3,1,2,4,0
575,1,1,5,2,4,3,3,2,4,4,0
576,4,3,4,2,1,4,4,3,3,2,0
577,4,2,2,3,2,4,4,2,1,3,0
578,2,1,2,2,3,3,3,3,3,3,0
579,3,1,2,1,2,3,4,1,3,2,0
580,2,2,1,2,2,2,1,5,5,3,0
581,2,3,3,4,3,3,3,2,1,3,0
582,1,3,2,3,1,3,2,3,3,4,0
583,4,1,1,2,2,4,4,3,4,2,0
584,3,4,4,2,3,1,2,2,3,3,0
585,3,1,1,2,3,4,3,3,3,3,0
586,4,5,3,5,3,3,3,2,2,1,0
587,3,2,2,2,3,3,4,4,3,3,0
588,3,2,4,2,2,1,2,2,2,1,0
589,1,3,2,2,1,3,3,3,2,3,0
590,3,2,4,4,3,2,3,4,2,4,0
591,2,1,3,2,1,4,3,3,2,1,0
592,1,4,2,4,2,3,3,2,4,2,0
593,3,1,4,3,5,1,2,2,2,2,0
594,2,2,1,5,3,3,3,3,3,1,0
595,3,2,5,4,3,3,3,4,3,1,0
596,1,3,2,3,4,3,3,2,2,3,0
597,4,2,4,3,3,1,3,1,4,1,0
598,2,3,3,3,1,4,2,3,3,2,0
599,2,4,2,2,4,4,4,4,2,2,0
600,5,2,3,2,3,2,3,2,1,3,0
601,3,3,1,1,2,3,4,1,4,4,0
602,4,2,4,3,2,2,3,4,2,2,0
603,3,2,3,3,2,2,3,2,5,1,0
604,5,3,4,3,3,1,3,3,2,4,0
605,3,1,3,2,4,3,3,2,3,3,0
606,4,3,1,4,4,3,3,1,3,4,0
607,1,3,3,3,2,2,3,2,4,1,0
608,2,3,2,3,2,3,2,4,3,2,0
609,3,3,3,2,2,3,1,4,3,2,0
610,2,1,2,2,3,3,2,2,3,4,0
611,3,4,2,3,3,3,3,1,1,4,0
612,2,4,3,3,2,2,4,3,4,2,0
613,3,2,3,4,2,4,3,5,3,3,0
614,4,3,3,3,3,3,2,4,1,3,0
615,3,3,3,1,3,2,1,3,3,1,0
616,5,3,5,3,2,4,2,3,2,3,0
617,2,3,2,2,4,1,4,4,3,2,0
618,1,3,2,3,3,5,2,2,2,2,0
619,1,1,4,3,2,2,1,3,3,2,0
620,2,4,1,3,3,3,3,2,1,2,0
621,2,1,2,2,2,3,3,4,3,3,0
622,3,2,2,2,3,3,3,3,2,4,0
623,2,4,2,4,2,3,3,3,3,3,0
624,4,3,3,3,2,3,1,3,2,4,0
625,1,1,3,2,3,3,4,5,3,2,0
626,4,4,2,3,3,2,2,3,3,2,0
627,3,2,3,5,2,2,2,2,4,2,0
628,1,1,3,3,1,2,3,2,3,3,0
629,4,2,4,2,2,3,1,3,1,1,0
630,3,3,2,2,3,3,2,2,3,2,0
631,4,4,2,2,2,2,4,3,4,4,0
632,2,2,2,4,2,3,4,3,4,2,0
633,1,3,4,1,3,2,2,3,4,3,0
634,3,2,3,2,2,2,2,4,4,3,0
635,1,3,1,2,1,3,3,2,3,3,0
636,2,2,3,3,3,4,3,3,4,4,0
637,4,3,4,3,1,3,3,2,2,3,0
638,2,4,2,2,1,3,1,2,2,2,0
639,2,3,3,3,3,3,2,3,2,2,0
640,3,1,1,3,4,2,4,3,3,2,0
641,3,2,2,3,2,3,4,4,2,3,0
642,3,2,2,3,4,2,3,3,3,2,0
643,2,3,1,3,2,2,4,1,2,4,0
644,2,4,2,4,3,3,2,1,4,2,0
645,2,5,3,2,2,3,2,2,2,2,0
646,1,2,3,2,2,2,4,4,4,3,0
647,4,3,2,2,3,3,5,4,3,1,0
648,3,3,3,2,2,3,4,3,4,3,0
649,2,2,2,2,2,2,3,1,3,5,0
650,3,2,1,1,4,2,3,1,1,3,0
651,4,2,3,2,1,3,3,3,1,5,0
652,2,2,5,3,3,2,2,3,3,2,0
653,2,2,3,3,3,3,3,1,3,2,0
654,2,3,3,4,2,3,3,3,2,2,0
655,4,2,4,2,2,2,3,2,4,4,0
656,3,2,2,3,3,4,4,2,3,3,0
657,3,1,1,2,2,3,3,3,3,3,0
658,2,4,2,3,2,3,4,3,3,2,0
659,3,2,2,3,3,3,3,2,1,3,0
660,3,1,2,5,3,3,3,3,2,4,0
661,2,2,3,4,2,4,2,2,3,3,0
662,1,2,1,2,2,3,2,1,3,3,0
663,5,2,2,2,4,2,3,3,3,4,0
664,4,3,3,3,2,4,3,3,3,2,0
665,3,3,2,2,3,4,2,4,3,4,0
666,2,2,4,3,2,3,3,1,2,2,0
667,4,2,2,4,2,3,3,2,2,3,0
668,3,2,2,3,2,2,4,1,2,3,0
669,1,4,3,3,2,2,1,2,3,3,0
670,1,3,3,4,1,1,2,2,1,3,0
671,4,3,2,2,5,3,5,1,4,3,0
672,4,5,4,3,2,1,3,2,3,5,0
673,4,3,3,4,3,1,3,3,2,1,0
674,4,3,2,4,4,3,2,3,4,2,0
675,3,1,3,3,5,4,3,3,2,3,0
676,3,2,2,2,3,2,3,3,3,2,0
677,3,4,3,2,1,2,3,4,2,2,0
678,1,2,3,2,2,4,3,2,4,2,0
679,3,1,2,2,2,5,2,3,3,4,0
680,3,4,4,1,2,1,3,3,2,4,0
681,1,3,3,2,3,3,1,2,4,1,0
682,2,2,3,1,2,2,3,3,1,4,0
683,3,3,2,2,4,3,3,2,2,2,0
684,3,2,4,4,3,3,3,3,2,3,0
685,2,1,2,1,1,5,2,3,3,4,0
686,2,4,3,3,3,1,3,2,2,2,0
687,3,2,1,3,2,1,3,5,1,4,0
688,3,2,3,2,2,1,5,2,3,2,0
689,2,1,2,3,4,2,3,2,3,3,0
690,3,3,2,1,4,2,2,4,3,3,0
691,4,3,2,5,3,1,3,3,2,2,0
692,4,2,4,3,2,4,2,1,1,3,0
693,2,1,4,4,2,2,1,4,4,3,0
694,3,5,3,2,2,5,5,3,3,2,0
695,3,1,3,5,4,3,4,2,3,2,0
696,4,2,1,3,2,3,3,3,3,4,0
697,1,5,4,3,3,3,3,2,3,4,0
698,2,4,3,3,2,4,3,2,2,3,0
699,4,3,3,2,4,4,1,3,5,3,0
700,1,3,3,2,1,2,3,3,1,2,0
701,2,3,1,1,2,2,3,2,2,3,0
702,2,4,1,3,3,2,3,4,4,3,0
703,5,3,4,1,2,3,1,5,2,1,0
704,3,3,4,2,3,3,2,3,3,2,0
705,3,3,2,4,2,3,2,2,3,3,0
706,3,2,3,2,2,2,2,4,1,2,0
707,1,2,1,1,2,2,3,4,1,4,0
708,2,2,2,3,2,3,3,1,3,2,0
709,3,2,3,5,1,3,5,3,2,3,0
710,3,4,3,3,3,2,3,2,2,1,0
711,3,3,5,1,4,2,2,2,3,4,0
712,2,1,2,2,2,3,2,2,2,5,0
713,4,3,2,2,2,3,3,2,2,1,0
714,4,2,2,4,2,3,2,4,3,3,0
715,2,3,1,3,2,4,2,4,2,2,0
716,3,4,3,1,1,2,3,3,2,2,0
717,3,2,2,3,4,3,3,3,2,3,0
718,2,2,5,4,2,4,1,2,5,2,0
719,2,4,4,2,4,2,3,4,3,1,0
720,4,2,2,3,2,2,2,4,3,3,0
721,1,1,4,2,1,1,3,4,1,2,0
722,3,4,1,3,1,3,2,2,1,5,0
723,2,5,2,3,3,4,2,2,3,3,0
724,4,4,3,1,2,2,3,2,4,1,0
725,4,3,4,3,3,3,2,5,3,1,0
726,2,3,1,2,4,3,2,2,1,2,0
727,4,3,3,3,3,2,2,1,2,2,0
728,2,4,2,2,1,3,2,2,2,2,0
729,3,3,5,2,3,2,3,2,2,4,0
730,3,1,3,2,2,2,3,4,1,2,0
731,2,4,2,3,2,2,2,1,3,3,0
732,3,3,2,5,2,4,4,4,2,3,0
733,2,2,5,1,3,2,3,2,3,1,0
734,2,2,3,4,2,2,1,4,3,1,0
735,1,4,3,2,2,5,2,3,2,1,0
736,2,3,4,4,3,3,3,1,3,1,0
737,2,4,2,3,3,2,3,3,3,1,0
738,3,3,3,4,1,3,4,1,1,2,0
739,2,3,3,2,1,2,4,3,3,2,0
740,2,3,3,4,2,2,5,1,3,3,0
741,3,3,3,3,4,4,2,3,4,4,0
742,3,5,5,3,3,4,3,2,3,5,0
743,4,1,2,2,4,1,3,3,2,4,0
744,2,4,4,2,2,1,2,2,3,5,0
745,1,3,3,1,4,2,2,4,3,3,0
746,5,2,2,4,4,1,2,3,2,4,0
747,2,3,3,1,2,2,3,3,2,4,0
748,1,3,2,4,1,3,3,3,2,3,0
749,3,3,3,3,5,3,4,1,3,2,0
750,4,3,4,3,4,2,3,2,3,2,0
751,3,4,3,2,3,3,3,2,4,3,0
752,5,3,3,4,1,2,2,3,1,2,0
753,3,4,4,2,3,3,1,3,3,2,0
754,3,2,4,3,2,4,1,1,2,1,0
755,2,5,2,4,3,1,3,3,1,1,0
756,3,3,2,4,3,3,4,3,2,1,0
757,3,4,2,4,4,1,3,3,3,5,0
758,3,2,2,2,3,3,1,4,4,4,0
759,3,4,3,2,4,3,3,2,3,3,0
760,1,4,1,3,3,2,1,2,2,2,0
761,3,2,4,2,2,2,3,3,2,3,0
762,2,2,3,2,2,2,2,2,3,2,0
763,1,2,2,3,2,1,1,4,1,3,0
764,2,4,3,3,4,2,3,3,1,2,0
765,3,3,1,2,2,3,4,3,3,2,0
766,3,4,1,3,2,3,2,2,3,3,0
767,2,4,2,3,3,3,3,3,2,3,0
768,3,3,2,3,4,5,3,3,4,3,0
769,3,3,3,3,1,1,1,4,3,5,0
770,3,2,3,3,2,3,4,2,2,3,0
771,3,2,3,1,3,4,3,4,3,3,0
772,4,2,4,1,2,3,2,3,3,4,0
773,1,3,2,2,3,2,1,2,2,2,0
774,2,4,2,2,4,3,3,3,3,3,0
775,2,1,3,4,3,5,1,3,3,2,0
776,4,1,3,4,3,3,2,2,3,4,0
777,4,2,4,2,3,2,1,3,3,3,0
778,2,4,1,2,2,2,3,3,2,3,0
779,2,2,4,3,4,3,2,4,1,2,0
780,3,4,4,2,3,2,2,2,3,2,0
781,3,4,1,2,3,4,3,3,3,4,0
782,4,2,2,3,4,3,3,3,2,4,0
783,2,2,4,2,2,2,3,3,2,3,0
784,4,3,2,1,2,3,5,3,3,3,0
785,5,4,2,3,2,2,3,3,3,3,0
786,2,4,2,2,2,2,2,5,2,2,0
787,3,3,3,2,3,3,2,2,2,3,0
788,2,2,2,2,2,3,2,3,2,2,0
789,1,2,5,2,3,3,3,3,3,1,0
790,2,2,2,2,2,2,4,4,4,3,0
791,2,3,2,3,2,3,2,3,3,2,0
792,4,2,3,3,5,2,2,2,1,3,0
793,4,4,4,3,4,2,2,1,2,3,0
794,1,2,3,3,2,3,4,1,2,2,0
795,2,2,3,3,3,4,4,1,2,3,0
796,4,3,3,4,3,1,2,3,1,4,0
797,2,4,3,3,4,3,1,1,3,2,0
798,2,2,3,1,3,2,3,3,2,3,0
799,2,3,3,4,3,2,3,3,2,3,0
800,4,3,2,3,2,4,3,3,3,3,1
801,1,3,5,3,4,4,3,4,4,4,1
802,1,4,2,5,4,3,3,3,3,4,1
803,3,3,3,3,2,3,4,5,3,3,1
804,5,5,5,4,5,3,2,4,2,2,1
805,4,3,5,3,5,3,3,4,2,4,1
806,4,5,4,3,3,4,5,4,4,4,1
807,4,4,3,5,5,3,3,4,5,2,1
808,2,4,4,5,3,3,3,2,4,4,1
809,3,4,5,4,3,3,4,3,4,4,1
810,5,3,4,3,4,4,4,2,4,2,1
811,4,4,2,4,3,2,3,5,3,3,1
812,2,5,4,4,4,4,3,4,3,3,1
813,1,4,5,4,3,4,4,4,2,3,1
814,2,3,3,3,3,3,1,4,4,5,1
815,4,2,3,3,3,3,3,4,3,4,1
816,3,3,4,3,3,3,4,5,3,5,1
817,3,4,5,2,2,2,5,4,3,3,1
818,5,4,3,3,3,4,3,3,4,5,1
819,3,3,3,4,4,3,4,4,3,5,1
820,3,3,4,5,2,4,4,5,2,4,1
821,4,4,4,4,3,2,3,4,3,5,1
822,2,3,3,5,4,2,4,4,2,3,1
823,3,4,4,3,4,4,3,3,3,4,1
824,4,3,2,4,4,4,3,3,4,3,1
825,3,4,2,2,5,3,4,3,4,3,1
826,5,3,4,4,5,5,1,2,3,3,1
827,4,3,4,4,3,3,4,2,4,3,1
828,3,4,4,4,3,4,5,4,4,3,1
829,3,2,5,5,4,5,5,4,3,2,1
830,4,4,3,3,3,3,5,4,2,4,1
831,3,3,4,3,5,4,2,5,4,3,1
832,3,4,2,2,3,2,2,3,4,4,1
833,4,4,1,1,3,4,3,3,4,2,1
834,5,3,5,5,4,3,1,4,2,5,1
835,4,5,2,4,3,5,5,2,3,3,1
836,4,3,5,4,4,4,4,3,4,3,1
837,4,5,3,3,2,4,3,2,2,4,1
838,3,3,5,4,1,4,4,3,3,2,1
839,3,2,5,3,3,4,3,5,3,3,1
840,4,3,4,4,5,3,4,5,3,4,1
841,3,4,3,3,4,5,3,4,3,4,1
842,3,3,3,3,4,4,2,3,3,2,1
843,5,4,2,4,3,3,4,4,3,4,1
844,5,3,2,4,4,4,2,3,3,4,1
845,5,3,3,4,2,4,3,4,3,3,1
846,3,3,4,4,4,4,4,5,3,4,1
847,3,4,4,4,4,3,3,2,5,3,1
848,3,1,4,3,2,2,4,4,5,4,1
849,3,3,3,3,3,2,2,2,3,5,1
850,4,3,3,5,4,5,4,4,4,3,1
851,2,4,3,3,4,4,3,5,3,4,1
852,3,4,4,5,4,4,4,3,3,4,1
853,4,4,3,2,2,3,4,2,4,3,1
854,1,2,2,3,3,5,4,3,4,3,1
855,4,3,4,2,5,3,4,2,2,4,1
856,2,3,3,4,4,3,5,3,3,4,1
857,3,4,3,5,3,4,3,4,4,5,1
858,3,3,3,2,4,3,4,4,4,4,1
859,3,4,3,4,3,4,2,2,4,5,1
860,5,5,5,5,3,4,2,5,5,3,1
861,1,4,4,3,2,4,3,5,3,3,1
862,3,3,3,2,3,3,3,3,3,2,1
863,2,4,4,4,4,4,4,4,3,2,1
864,1,1,4,4,4,4,2,4,4,1,1
865,4,2,2,4,2,2,4,4,3,3,1
866,2,4,3,4,4,4,2,3,5,4,1
867,4,4,5,4,3,4,3,4,4,4,1
868,5,2,3,4,4,3,4,2,4,3,1
869,3,2,4,3,3,4,3,3,4,2,1
870,3,2,3,3,4,5,3,2,3,3,1
871,4,3,3,4,3,3,4,5,3,1,1
872,1,3,4,3,4,3,3,3,5,3,1
873,2,3,3,2,1,5,3,3,4,2,1
874,5,3,4,4,4,4,3,4,2,4,1
875,4,4,3,5,4,3,3,3,2,2,1
876,4,2,4,5,3,3,2,4,3,5,1
877,5,3,3,3,2,4,3,4,4,4,1
878,4,4,4,3,3,2,5,3,3,3,1
879,5,2,5,3,2,5,3,3,4,3,1
880,4,4,2,4,3,2,3,3,4,4,1
881,3,2,3,5,2,3,5,3,3,3,1
882,3,5,3,3,3,3,4,4,3,5,1
883,3,4,3,2,4,3,1,5,2,4,1
884,4,3,3,5,4,4,3,3,4,4,1
885,3,5,3,4,4,3,3,2,3,4,1
886,3,3,3,4,4,2,2,5,4,2,1
887,3,4,3,4,5,5,4,3,4,5,1
888,4,3,2,5,2,3,4,4,3,5,1
889,3,2,3,4,4,4,1,4,3,4,1
890,5,2,3,3,4,3,3,5,4,2,1
891,2,3,3,3,5,2,3,4,3,4,1
892,3,4,2,3,5,3,3,5,3,4,1
893,4,4,4,2,3,3,2,5,4,3,1
894,3,3,3,5,4,4,2,4,5,3,1
895,3,5,3,4,3,2,3,4,2,4,1
896,3,4,4,5,5,1,3,5,5,4,1
897,3,5,4,3,3,3,5,3,3,3,1
898,2,3,5,3,3,3,1,4,4,4,1
899,4,4,4,3,4,3,2,3,3,5,1
900,4,4,4,3,4,3,3,2,4,4,1
901,4,4,3,4,4,4,1,3,2,3,1
902,1,3,3,3,2,3,2,4,2,4,1
903,2,4,3,3,5,5,3,3,3,2,1
904,4,3,1,4,5,4,4,3,4,5,1
905,3,2,5,3,4,5,4,2,4,1,1
906,4,3,2,3,5,4,4,4,4,4,1
907,5,5,4,3,2,4,3,4,3,2,1
908,3,3,4,3,4,3,4,3,3,4,1
909,3,4,3,3,4,2,3,5,2,4,1
910,4,2,4,3,3,3,4,4,2,3,1
911,3,4,3,3,4,2,3,3,2,3,1
912,2,2,4,4,4,3,4,2,3,4,1
913,3,2,3,3,4,4,4,1,4,2,1
914,5,3,4,2,3,4,4,5,4,4,1
915,4,3,2,3,5,2,4,4,4,2,1
916,3,5,5,3,4,4,3,3,2,3,1
917,4,3,2,5,3,4,2,3,5,1,1
918,2,3,4,4,3,4,3,5,5,1,1
919,3,3,3,4,4,3,4,4,4,5,1
920,4,3,3,3,4,3,3,4,2,3,1
921,3,4,3,5,2,3,3,4,4,3,1
922,3,4,3,4,3,1,3,5,3,2,1
923,4,3,3,1,3,4,4,4,5,2,1
924,3,3,3,4,4,3,3,4,4,3,1
925,3,2,5,4,3,5,4,3,5,4,1
926,2,4,4,3,3,3,4,3,2,3,1
927,2,4,4,3,3,2,4,4,2,4,1
928,4,2,3,4,4,3,3,4,4,4,1
929,3,4,4,4,3,4,4,4,3,4,1
930,3,4,3,3,4,4,1,3,2,4,1
931,3,4,2,4,2,5,5,2,3,3,1
932,2,4,4,3,3,4,3,4,2,5,1
933,4,4,4,3,3,4,3,4,3,5,1
934,5,4,3,3,4,2,3,3,3,5,1
935,3,3,4,4,1,4,4,3,2,3,1
936,3,3,5,3,4,2,3,4,4,2,1
937,5,2,3,3,3,2,5,2,3,3,1
938,3,4,4,3,4,4,2,4,3,3,1
939,2,4,5,3,4,3,4,2,2,3,1
940,3,2,5,3,4,2,3,5,5,4,1
941,4,5,3,5,4,4,5,3,3,4,1
942,4,4,2,1,2,5,2,2,2,4,1
943,4,4,5,3,4,3,4,4,3,4,1
944,4,3,4,3,4,4,5,4,3,2,1
945,4,3,1,2,5,4,2,4,3,4,1
946,3,5,4,3,3,3,5,4,3,4,1
947,3,3,2,3,5,4,5,3,5,5,1
948,3,4,4,4,4,4,4,4,5,2,1
949,2,4,4,4,3,3,4,4,3,3,1
950,3,3,4,3,2,5,3,3,3,3,1
951,4,3,3,3,3,3,4,4,5,4,1
952,2,4,3,4,4,1,4,3,5,3,1
953,4,5,4,3,4,4,3,3,2,2,1
954,4,1,4,1,3,3,4,3,3,4,1
955,3,2,4,4,3,3,3,4,4,4,1
956,2,4,4,3,3,4,4,4,5,3,1
957,2,5,4,3,3,2,2,4,3,2,1
958,3,3,4,3,3,2,4,4,3,3,1
959,2,3,1,4,4,3,5,4,3,4,1
960,4,4,4,3,3,1,3,4,3,3,1
961,2,3,5,2,2,2,4,4,4,2,1
962,5,4,4,2,3,4,5,5,4,3,1
963,3,3,4,5,2,3,5,2,2,3,1
964,3,2,5,3,4,5,3,4,3,3,1
965,3,4,3,4,2,2,4,5,3,3,1
966,3,5,4,4,2,2,5,1,3,4,1
967,3,3,4,5,5,2,4,2,2,5,1
968,4,4,3,3,4,4,3,4,4,1,1
969,3,4,2,5,2,3,3,4,3,5,1
970,3,4,3,4,4,4,3,2,4,3,1
971,5,3,5,4,3,3,3,1,3,3,1
972,1,3,3,4,3,4,2,4,3,2,1
973,4,4,4,5,3,4,3,2,3,3,1
974,3,3,5,5,4,5,4,5,3,3,1
975,3,3,2,3,4,2,3,2,3,4,1
976,5,4,4,4,3,3,5,2,4,4,1
977,3,4,4,3,3,3,5,3,3,3,1
978,4,3,4,4,3,3,5,4,3,2,1
979,2,4,3,4,4,2,3,3,4,4,1
980,4,2,4,4,4,3,4,5,4,2,1
981,4,4,4,2,3,4,3,5,5,2,1
982,4,5,3,2,3,3,5,4,3,4,1
983,2,2,3,4,3,4,3,4,4,2,1
984,4,5,4,3,2,3,3,5,3,3,1
985,2,3,4,5,3,5,4,3,4,5,1
986,3,3,2,4,2,4,4,3,3,3,1
987,2,4,3,4,3,3,2,4,4,4,1
988,3,4,5,5,4,3,5,4,4,5,1
989,4,5,2,5,4,4,2,4,3,5,1
990,5,4,1,3,4,4,3,3,4,3,1
991,2,3,3,3,3,2,3,4,1,4,1
992,4,3,3,2,4,3,2,2,3,4,1
993,3,3,3,5,5,3,3,2,5,3,1
994,4,4,3,2,3,4,5,2,3,3,1
995,4,3,4,3,3,4,4,3,3,2,1
996,3,3,3,5,3,3,4,4,5,4,1
997,3,4,4,3,3,5,2,4,3,4,1
998,4,4,3,5,1,3,3,3,5,1,1
999,3,4,5,3,3,3,4,4,2,3,1
