%!PS-Adobe-3.0 EPSF-3.0
%%Title: figures/auc_lambda.eps
%%Creator: matplotlib version 2.1.0, http://matplotlib.org/
%%CreationDate: Tue Jul 17 01:40:49 2018
%%Orientation: portrait
%%BoundingBox: -414 36 1026 756
%%EndComments
%%BeginProlog
/mpldict 9 dict def
mpldict begin
/m { moveto } bind def
/l { lineto } bind def
/r { rlineto } bind def
/c { curveto } bind def
/cl { closepath } bind def
/box {
m
1 index 0 r
0 exch r
neg 0 r
cl
} bind def
/clipbox {
box
clip
newpath
} bind def
%!PS-Adobe-3.0 Resource-Font
%%Title: DejaVu Serif
%%Copyright: Copyright (c) 2003 by Bitstream, Inc. All Rights Reserved. DejaVu changes are in public domain 
%%Creator: Converted from TrueType to type 3 by PPR
25 dict begin
/_d{bind def}bind def
/_m{moveto}_d
/_l{lineto}_d
/_cl{closepath eofill}_d
/_c{curveto}_d
/_sc{7 -1 roll{setcachedevice}{pop pop pop pop pop pop}ifelse}_d
/_e{exec}_d
/FontName /DejaVuSerif def
/PaintType 0 def
/FontMatrix[.001 0 0 .001 0 0]def
/FontBBox[-770 -347 2105 1109]def
/FontType 3 def
/Encoding [ /space /parenleft /parenright /A /C /U /a /d /e /n /r /u /v /lambda ] def
/FontInfo 10 dict dup begin
/FamilyName (DejaVu Serif) def
/FullName (DejaVu Serif) def
/Notice (Copyright (c) 2003 by Bitstream, Inc. All Rights Reserved. DejaVu changes are in public domain ) def
/Weight (Book) def
/Version (Version 2.35) def
/ItalicAngle 0.0 def
/isFixedPitch false def
/UnderlinePosition -130 def
/UnderlineThickness 90 def
end readonly def
/CharStrings 15 dict dup begin
/.notdef 0 def
/space{318 0 0 0 0 0 _sc
}_d
/parenleft{390 0 79 -155 319 760 _sc
319 -155 _m
239 -119 179 -63 139 13 _c
99 89 79 186 79 302 _c
79 418 99 514 139 591 _c
179 668 239 724 319 760 _c
319 712 _l
269 677 233 628 211 566 _c
189 503 178 415 178 302 _c
178 188 189 100 211 38 _c
233 -24 269 -72 319 -107 _c
319 -155 _l
_cl}_d
/parenright{390 0 71 -155 311 760 _sc
71 -155 _m
71 -107 _l
121 -72 157 -24 179 38 _c
201 100 212 188 212 302 _c
212 415 201 503 179 566 _c
157 628 121 677 71 712 _c
71 760 _l
150 724 210 668 250 591 _c
290 514 311 418 311 302 _c
311 186 290 89 250 13 _c
210 -63 150 -119 71 -155 _c
_cl}_d
/A{722 0 -5 0 732 729 _sc
200 264 _m
468 264 _l
334 611 _l
200 264 _l
-5 0 _m
-5 52 _l
58 52 _l
318 729 _l
400 729 _l
660 52 _l
732 52 _l
732 0 _l
467 0 _l
467 52 _l
548 52 _l
487 212 _l
180 212 _l
119 52 _l
199 52 _l
199 0 _l
-5 0 _l
_cl}_d
/C{{765 0 56 -13 705 742 _sc
705 193 _m
683 125 647 73 597 39 _c
546 4 482 -13 405 -13 _c
357 -13 312 -5 272 11 _c
231 27 195 50 164 82 _c
127 118 100 160 82 206 _c
64 252 56 305 56 364 _c
56 477 88 568 154 638 _c
219 707 305 742 413 742 _c
453 742 495 736 540 726 _c
584 716 633 700 685 679 _c
685 511 _l
630 511 _l
618 572 593 617 557 646 _c
}_e{521 675 470 690 405 690 _c
327 690 268 662 228 607 _c
188 551 168 470 168 364 _c
168 257 188 176 228 121 _c
268 65 327 38 405 38 _c
459 38 503 51 539 77 _c
574 103 599 141 615 193 _c
705 193 _l
_cl}_e}_d
/U{{843 0 47 -13 798 729 _sc
140 677 _m
47 677 _l
47 729 _l
332 729 _l
332 677 _l
239 677 _l
239 300 _l
239 206 254 141 284 105 _c
314 68 367 50 442 50 _c
516 50 569 68 599 105 _c
629 141 645 206 645 300 _c
645 677 _l
552 677 _l
552 729 _l
798 729 _l
798 677 _l
705 677 _l
705 290 _l
705 179 683 101 641 55 _c
598 9 526 -13 424 -13 _c
322 -13 249 10 205 56 _c
}_e{161 102 140 180 140 290 _c
140 677 _l
_cl}_e}_d
/a{{596 0 50 -13 568 533 _sc
398 163 _m
398 273 _l
282 273 _l
237 273 204 263 182 244 _c
160 224 150 195 150 156 _c
150 120 161 91 183 70 _c
205 48 235 38 273 38 _c
310 38 340 49 363 72 _c
386 95 398 125 398 163 _c
488 324 _m
488 52 _l
568 52 _l
568 0 _l
398 0 _l
398 56 _l
378 32 355 14 329 3 _c
303 -7 272 -13 238 -13 _c
180 -13 134 2 100 32 _c
}_e{66 62 50 104 50 156 _c
50 209 69 250 108 280 _c
146 310 201 325 272 325 _c
398 325 _l
398 361 _l
398 400 386 430 362 452 _c
338 474 304 485 261 485 _c
225 485 197 476 176 460 _c
154 444 141 420 136 388 _c
90 388 _l
90 493 _l
121 506 151 516 181 523 _c
210 529 239 533 267 533 _c
339 533 393 515 431 479 _c
469 443 488 392 488 324 _c
_cl}_e}_d
/d{{640 0 50 -13 611 760 _sc
525 52 _m
611 52 _l
611 0 _l
435 0 _l
435 81 _l
417 48 395 24 368 9 _c
340 -5 307 -13 267 -13 _c
203 -13 150 12 110 62 _c
70 112 50 178 50 260 _c
50 341 70 407 110 457 _c
150 507 203 533 267 533 _c
307 533 340 525 368 510 _c
395 494 417 470 435 438 _c
435 708 _l
350 708 _l
350 760 _l
525 760 _l
525 52 _l
435 234 _m
435 285 _l
}_e{435 347 423 394 399 427 _c
375 460 340 477 295 477 _c
249 477 214 458 190 422 _c
166 386 155 332 155 260 _c
155 188 166 133 190 97 _c
214 60 249 42 295 42 _c
340 42 375 58 399 91 _c
423 123 435 171 435 234 _c
_cl}_e}_d
/e{{592 0 50 -13 542 533 _sc
542 250 _m
155 250 _l
155 246 _l
155 176 168 123 194 87 _c
220 51 259 34 311 34 _c
350 34 382 44 408 65 _c
433 85 451 116 461 157 _c
533 157 _l
519 100 492 57 454 29 _c
415 1 364 -13 302 -13 _c
226 -13 165 11 119 61 _c
73 111 50 177 50 260 _c
50 342 72 408 118 458 _c
163 508 222 533 296 533 _c
374 533 435 508 477 460 _c
}_e{519 412 540 342 542 250 _c
436 302 _m
434 362 421 408 397 439 _c
373 469 340 485 296 485 _c
254 485 222 469 198 438 _c
174 407 160 362 155 302 _c
436 302 _l
_cl}_e}_d
/n{{644 0 36 0 616 533 _sc
41 0 _m
41 52 _l
122 52 _l
122 467 _l
36 467 _l
36 519 _l
212 519 _l
212 427 _l
228 461 250 488 276 506 _c
302 524 333 533 369 533 _c
426 533 468 516 495 484 _c
522 451 536 400 536 330 _c
536 52 _l
616 52 _l
616 0 _l
368 0 _l
368 52 _l
446 52 _l
446 302 _l
446 365 438 408 422 432 _c
406 456 379 468 340 468 _c
}_e{298 468 266 452 244 422 _c
222 391 212 347 212 289 _c
212 52 _l
290 52 _l
290 0 _l
41 0 _l
_cl}_e}_d
/r{478 0 36 0 478 533 _sc
478 520 _m
478 390 _l
426 390 _l
424 416 417 435 405 448 _c
392 460 373 467 349 467 _c
305 467 271 451 247 421 _c
223 390 212 346 212 289 _c
212 52 _l
316 52 _l
316 0 _l
41 0 _l
41 52 _l
122 52 _l
122 468 _l
36 468 _l
36 519 _l
212 519 _l
212 427 _l
229 463 251 489 279 507 _c
307 524 341 533 381 533 _c
395 533 411 531 427 529 _c
443 527 460 524 478 520 _c
_cl}_d
/u{{644 0 27 -13 607 519 _sc
354 519 _m
522 519 _l
522 52 _l
607 52 _l
607 0 _l
432 0 _l
432 92 _l
415 57 393 31 367 13 _c
341 -4 310 -13 276 -13 _c
218 -13 175 3 148 35 _c
121 67 108 119 108 189 _c
108 467 _l
27 467 _l
27 519 _l
198 519 _l
198 217 _l
198 153 205 110 221 87 _c
237 63 264 52 304 52 _c
346 52 377 67 399 98 _c
421 128 432 173 432 231 _c
}_e{432 467 _l
354 467 _l
354 519 _l
_cl}_e}_d
/v{565 0 -2 0 562 519 _sc
247 0 _m
56 467 _l
-2 467 _l
-2 519 _l
236 519 _l
236 467 _l
153 467 _l
299 110 _l
445 467 _l
367 467 _l
367 519 _l
562 519 _l
562 467 _l
504 467 _l
313 0 _l
247 0 _l
_cl}_d
/lambda{{634 0 41 0 606 765 _sc
260 638 _m
248 668 236 688 225 698 _c
213 708 199 713 182 713 _c
162 713 148 708 139 699 _c
129 689 124 673 122 651 _c
76 651 _l
76 750 _l
92 754 109 758 125 761 _c
141 763 156 765 172 765 _c
208 765 236 757 256 743 _c
276 728 294 700 310 660 _c
548 52 _l
606 52 _l
606 0 _l
411 0 _l
411 52 _l
489 52 _l
351 411 _l
197 52 _l
280 52 _l
}_e{280 0 _l
41 0 _l
41 52 _l
100 52 _l
302 529 _l
260 638 _l
_cl}_e}_d
end readonly def

/BuildGlyph
 {exch begin
 CharStrings exch
 2 copy known not{pop /.notdef}if
 true 3 1 roll get exec
 end}_d

/BuildChar {
 1 index /Encoding get exch get
 1 index /BuildGlyph get exec
}_d

FontName currentdict end definefont pop
%!PS-Adobe-3.0 Resource-Font
%%Title: DejaVu Serif Bold
%%Copyright: Copyright (c) 2003 by Bitstream, Inc. All Rights Reserved. DejaVu changes are in public domain 
%%Creator: Converted from TrueType to type 3 by PPR
25 dict begin
/_d{bind def}bind def
/_m{moveto}_d
/_l{lineto}_d
/_cl{closepath eofill}_d
/_c{curveto}_d
/_sc{7 -1 roll{setcachedevice}{pop pop pop pop pop pop}ifelse}_d
/_e{exec}_d
/FontName /DejaVuSerif-Bold def
/PaintType 0 def
/FontMatrix[.001 0 0 .001 0 0]def
/FontBBox[-836 -389 1796 1145]def
/FontType 3 def
/Encoding [ /period /zero /one /two /five /six /seven /eight /nine /B /D /G /L /M /N /R /S /T /V ] def
/FontInfo 10 dict dup begin
/FamilyName (DejaVu Serif) def
/FullName (DejaVu Serif Bold) def
/Notice (Copyright (c) 2003 by Bitstream, Inc. All Rights Reserved. DejaVu changes are in public domain ) def
/Weight (Bold) def
/Version (Version 2.35) def
/ItalicAngle 0.0 def
/isFixedPitch false def
/UnderlinePosition -130 def
/UnderlineThickness 90 def
end readonly def
/CharStrings 20 dict dup begin
/.notdef 0 def
/period{348 0 81 -13 267 172 _sc
81 79 _m
81 104 90 126 108 144 _c
126 162 148 172 174 172 _c
199 172 221 162 239 144 _c
257 126 267 104 267 79 _c
267 53 257 32 239 14 _c
221 -4 199 -13 174 -13 _c
148 -13 126 -4 108 14 _c
90 32 81 53 81 79 _c
_cl}_d
/zero{696 0 47 -13 649 742 _sc
348 43 _m
387 43 414 60 428 96 _c
442 131 450 220 450 364 _c
450 506 442 595 428 631 _c
414 667 387 685 348 685 _c
309 685 282 667 268 632 _c
253 596 246 507 246 364 _c
246 220 253 131 268 96 _c
282 60 309 43 348 43 _c
348 -13 _m
250 -13 176 19 124 84 _c
72 148 47 242 47 364 _c
47 486 72 579 124 644 _c
176 709 250 742 348 742 _c
445 742 519 709 571 644 _c
623 579 649 486 649 364 _c
649 242 623 148 571 84 _c
519 19 445 -13 348 -13 _c
_cl}_d
/one{696 0 122 0 596 742 _sc
137 0 _m
137 59 _l
274 59 _l
274 649 _l
122 559 _l
122 632 _l
305 742 _l
459 742 _l
459 59 _l
596 59 _l
596 0 _l
137 0 _l
_cl}_d
/two{{696 0 67 0 606 742 _sc
132 549 _m
73 549 _l
73 706 _l
113 718 152 727 191 733 _c
230 739 269 742 309 742 _c
401 742 474 723 526 685 _c
578 647 604 594 604 527 _c
604 479 589 435 561 397 _c
532 359 477 313 397 261 _c
194 128 _l
539 128 _l
539 214 _l
606 214 _l
606 0 _l
67 0 _l
67 119 _l
175 194 _l
267 257 328 311 359 356 _c
389 400 405 452 405 512 _c
}_e{405 568 393 611 370 641 _c
346 670 312 685 268 685 _c
229 685 198 673 175 650 _c
152 626 138 593 132 549 _c
_cl}_e}_d
/five{{696 0 82 -13 620 729 _sc
564 729 _m
564 601 _l
174 601 _l
174 441 _l
195 457 219 470 245 478 _c
271 486 299 491 329 491 _c
419 491 490 468 542 423 _c
594 377 620 316 620 238 _c
620 158 594 97 542 53 _c
490 9 417 -13 323 -13 _c
283 -13 244 -10 205 -4 _c
165 2 124 12 82 26 _c
82 185 _l
141 185 _l
143 137 155 101 178 78 _c
200 54 234 43 280 43 _c
}_e{328 43 363 59 386 91 _c
409 123 421 172 421 238 _c
421 302 409 351 387 383 _c
364 415 330 431 284 431 _c
259 431 237 425 218 415 _c
198 405 180 389 164 368 _c
115 368 _l
115 729 _l
564 729 _l
_cl}_e}_d
/six{{696 0 63 -13 642 742 _sc
246 432 _m
267 449 291 462 317 470 _c
343 478 371 483 403 483 _c
477 483 536 461 578 417 _c
620 373 642 314 642 238 _c
642 157 618 95 570 52 _c
522 8 454 -13 366 -13 _c
266 -13 191 16 140 76 _c
88 136 63 224 63 341 _c
63 473 91 573 148 641 _c
205 708 290 742 402 742 _c
431 742 462 739 496 735 _c
529 730 565 723 604 713 _c
604 584 _l
}_e{545 584 _l
537 617 521 642 499 659 _c
476 676 447 685 411 685 _c
353 685 311 665 285 625 _c
259 585 246 521 246 432 _c
355 43 _m
388 43 412 57 426 85 _c
440 113 448 163 448 234 _c
448 304 440 353 426 382 _c
412 410 388 425 355 425 _c
321 425 297 410 283 382 _c
269 353 262 304 262 234 _c
262 163 269 113 283 85 _c
297 57 321 43 355 43 _c
_cl}_e}_d
/seven{696 0 79 0 613 729 _sc
613 605 _m
312 0 _l
213 0 _l
506 591 _l
146 591 _l
146 492 _l
79 492 _l
79 729 _l
613 729 _l
613 605 _l
_cl}_d
/eight{{696 0 52 -13 642 742 _sc
465 388 _m
523 378 567 357 597 324 _c
627 290 642 247 642 194 _c
642 126 616 75 566 40 _c
515 4 442 -13 347 -13 _c
251 -13 178 4 128 40 _c
77 75 52 126 52 194 _c
52 247 67 290 97 324 _c
127 357 171 378 229 388 _c
177 400 139 419 114 447 _c
88 474 76 509 76 552 _c
76 614 99 661 145 693 _c
191 725 259 742 347 742 _c
}_e{435 742 502 725 548 693 _c
594 661 618 614 618 552 _c
618 509 605 474 580 447 _c
554 419 516 400 465 388 _c
429 550 _m
429 601 422 636 410 656 _c
398 675 377 685 347 685 _c
317 685 295 675 283 656 _c
271 636 265 601 265 550 _c
265 498 271 463 283 444 _c
295 425 317 416 347 416 _c
377 416 399 425 411 444 _c
423 463 429 498 429 550 _c
448 202 _m
448 262 440 303 425 325 _c
}_e{410 347 384 359 347 359 _c
309 359 283 347 268 325 _c
253 303 246 262 246 202 _c
246 142 253 100 269 77 _c
284 54 310 43 347 43 _c
383 43 409 54 425 77 _c
440 100 448 142 448 202 _c
_cl}_e}_d
/nine{{696 0 54 -13 633 742 _sc
341 685 _m
307 685 283 670 269 642 _c
255 614 248 564 248 494 _c
248 424 255 374 269 346 _c
283 317 307 303 341 303 _c
374 303 398 317 412 346 _c
426 374 434 424 434 494 _c
434 564 426 614 412 642 _c
398 670 374 685 341 685 _c
450 297 _m
428 279 404 266 378 258 _c
352 249 323 245 293 245 _c
219 245 160 266 118 310 _c
75 353 54 413 54 490 _c
}_e{54 570 77 632 125 676 _c
173 720 241 742 329 742 _c
429 742 504 712 556 652 _c
607 592 633 503 633 387 _c
633 254 604 154 547 87 _c
490 20 406 -13 294 -13 _c
264 -13 233 -10 199 -6 _c
165 -2 130 5 92 15 _c
92 144 _l
151 144 _l
159 110 174 85 197 68 _c
219 51 249 43 285 43 _c
342 43 384 63 410 103 _c
436 143 449 207 450 297 _c
_cl}_e}_d
/B{{845 0 47 0 790 729 _sc
47 0 _m
47 59 _l
140 59 _l
140 670 _l
47 670 _l
47 729 _l
479 729 _l
567 729 634 714 679 684 _c
723 654 746 609 746 549 _c
746 505 730 471 700 446 _c
669 420 623 404 563 398 _c
636 391 692 371 731 339 _c
770 307 790 264 790 211 _c
790 139 762 85 708 51 _c
653 17 568 0 452 0 _c
47 0 _l
328 425 _m
392 425 _l
}_e{448 425 489 435 516 455 _c
543 475 557 507 557 549 _c
557 591 544 621 518 641 _c
492 660 450 670 392 670 _c
328 670 _l
328 425 _l
328 59 _m
398 59 _l
460 59 506 71 536 96 _c
566 120 581 159 581 211 _c
581 263 565 301 535 327 _c
505 353 459 366 398 366 _c
328 366 _l
328 59 _l
_cl}_e}_d
/D{867 0 47 0 825 729 _sc
328 59 _m
396 59 _l
472 59 527 83 563 132 _c
598 181 616 259 616 365 _c
616 471 598 548 563 597 _c
528 645 472 670 396 670 _c
328 670 _l
328 59 _l
47 0 _m
47 59 _l
140 59 _l
140 670 _l
47 670 _l
47 729 _l
421 729 _l
551 729 651 697 721 635 _c
790 573 825 483 825 365 _c
825 247 790 156 721 94 _c
651 31 551 0 421 0 _c
47 0 _l
_cl}_d
/G{{854 0 42 -13 775 742 _sc
688 500 _m
673 564 648 611 614 640 _c
580 668 532 683 470 683 _c
394 683 339 657 304 606 _c
268 554 251 474 251 364 _c
251 254 268 174 302 122 _c
336 70 388 45 460 45 _c
487 45 512 48 536 54 _c
559 60 580 69 600 82 _c
600 282 _l
512 282 _l
512 341 _l
775 341 _l
775 61 _l
720 35 665 17 611 5 _c
556 -7 500 -13 444 -13 _c
}_e{318 -13 220 20 149 87 _c
77 154 42 246 42 364 _c
42 481 77 573 149 641 _c
220 708 318 742 444 742 _c
496 742 547 736 597 726 _c
647 716 698 700 750 679 _c
750 500 _l
688 500 _l
_cl}_e}_d
/L{703 0 47 0 681 729 _sc
47 0 _m
47 59 _l
140 59 _l
140 670 _l
47 670 _l
47 729 _l
422 729 _l
422 670 _l
328 670 _l
328 67 _l
615 67 _l
615 182 _l
681 182 _l
681 0 _l
47 0 _l
_cl}_d
/M{1107 0 42 0 1060 729 _sc
42 0 _m
42 59 _l
135 59 _l
135 670 _l
42 670 _l
42 729 _l
343 729 _l
551 261 _l
760 729 _l
1060 729 _l
1060 670 _l
967 670 _l
967 59 _l
1060 59 _l
1060 0 _l
685 0 _l
685 59 _l
778 59 _l
778 615 _l
552 107 _l
428 107 _l
203 615 _l
203 59 _l
296 59 _l
296 0 _l
42 0 _l
_cl}_d
/N{914 0 44 0 874 729 _sc
44 0 _m
44 59 _l
137 59 _l
137 670 _l
44 670 _l
44 729 _l
272 729 _l
712 213 _l
712 670 _l
619 670 _l
619 729 _l
874 729 _l
874 670 _l
781 670 _l
781 0 _l
653 0 _l
206 527 _l
206 59 _l
299 59 _l
299 0 _l
44 0 _l
_cl}_d
/R{{831 0 47 0 837 729 _sc
531 356 _m
559 352 584 342 604 327 _c
624 312 641 290 656 262 _c
762 59 _l
837 59 _l
837 0 _l
597 0 _l
481 220 _l
458 266 439 295 423 307 _c
407 319 386 326 358 326 _c
328 326 _l
328 59 _l
422 59 _l
422 0 _l
47 0 _l
47 59 _l
140 59 _l
140 670 _l
47 670 _l
47 729 _l
463 729 _l
547 729 613 712 659 678 _c
}_e{705 644 728 595 728 533 _c
728 482 711 442 679 413 _c
646 383 597 364 531 356 _c
328 385 _m
392 385 _l
437 385 472 397 497 422 _c
521 446 534 482 534 528 _c
534 574 521 609 497 633 _c
472 657 437 670 392 670 _c
328 670 _l
328 385 _l
_cl}_e}_d
/S{{722 0 66 -13 662 742 _sc
77 35 _m
77 208 _l
139 208 _l
148 153 170 112 206 85 _c
241 58 290 45 352 45 _c
402 45 441 54 467 74 _c
493 93 507 121 507 158 _c
507 187 498 210 480 226 _c
462 242 425 258 369 272 _c
260 299 _l
188 317 138 342 109 374 _c
80 406 66 453 66 513 _c
66 585 90 642 138 682 _c
186 722 253 742 340 742 _c
382 742 427 738 473 731 _c
}_e{519 724 566 713 616 699 _c
616 538 _l
554 538 _l
544 588 524 624 492 648 _c
460 671 414 683 356 683 _c
308 683 271 674 247 658 _c
222 641 210 616 210 583 _c
210 553 218 530 235 514 _c
252 498 294 481 360 465 _c
469 438 _l
537 421 586 395 616 359 _c
646 323 662 273 662 211 _c
662 137 636 82 586 44 _c
535 6 460 -13 362 -13 _c
314 -13 267 -9 220 -1 _c
}_e{173 6 125 18 77 35 _c
_cl}_e}_d
/T{744 0 11 0 734 729 _sc
181 0 _m
181 59 _l
278 59 _l
278 662 _l
78 662 _l
78 547 _l
11 547 _l
11 729 _l
734 729 _l
734 547 _l
668 547 _l
668 662 _l
467 662 _l
467 59 _l
564 59 _l
564 0 _l
181 0 _l
_cl}_d
/V{776 0 -5 0 790 729 _sc
790 729 _m
790 670 _l
729 670 _l
454 0 _l
338 0 _l
63 670 _l
-5 670 _l
-5 729 _l
336 729 _l
336 670 _l
265 670 _l
462 187 _l
660 670 _l
573 670 _l
573 729 _l
790 729 _l
_cl}_d
end readonly def

/BuildGlyph
 {exch begin
 CharStrings exch
 2 copy known not{pop /.notdef}if
 true 3 1 roll get exec
 end}_d

/BuildChar {
 1 index /Encoding get exch get
 1 index /BuildGlyph get exec
}_d

FontName currentdict end definefont pop
end
%%EndProlog
mpldict begin
-414 36 translate
1440 720 0 0 clipbox
gsave
0 0 m
1440 0 l
1440 720 l
0 720 l
cl
1.000 setgray
fill
grestore
gsave
180 79.2 m
1296 79.2 l
1296 633.6 l
180 633.6 l
cl
1.000 setgray
fill
grestore
0.800 setlinewidth
1 setlinejoin
0 setlinecap
[] 0 setdash
0.000 setgray
gsave
/o {
gsave
newpath
translate
0.8 setlinewidth
1 setlinejoin
0 setlinecap
0 0 m
0 -3.5 l

gsave
0.000 setgray
fill
grestore
stroke
grestore
} bind def
230.727 79.2 o
grestore
/DejaVuSerif-Bold findfont
36.000 scalefont
setfont
gsave
199.414773 44.840625 translate
0.000000 rotate
0.000000 0.000000 m /zero glyphshow
25.048828 0.000000 m /period glyphshow
37.582031 0.000000 m /one glyphshow
grestore
gsave
/o {
gsave
newpath
translate
0.8 setlinewidth
1 setlinejoin
0 setlinecap
0 0 m
0 -3.5 l

gsave
0.000 setgray
fill
grestore
stroke
grestore
} bind def
343.455 79.2 o
grestore
gsave
312.142045 44.840625 translate
0.000000 rotate
0.000000 0.000000 m /zero glyphshow
25.048828 0.000000 m /period glyphshow
37.582031 0.000000 m /two glyphshow
grestore
gsave
/o {
gsave
newpath
translate
0.8 setlinewidth
1 setlinejoin
0 setlinecap
0 0 m
0 -3.5 l

gsave
0.000 setgray
fill
grestore
stroke
grestore
} bind def
681.636 79.2 o
grestore
gsave
650.323864 44.840625 translate
0.000000 rotate
0.000000 0.000000 m /zero glyphshow
25.048828 0.000000 m /period glyphshow
37.582031 0.000000 m /five glyphshow
grestore
gsave
/o {
gsave
newpath
translate
0.8 setlinewidth
1 setlinejoin
0 setlinecap
0 0 m
0 -3.5 l

gsave
0.000 setgray
fill
grestore
stroke
grestore
} bind def
1245.27 79.2 o
grestore
gsave
1213.960227 44.840625 translate
0.000000 rotate
0.000000 0.000000 m /one glyphshow
25.048828 0.000000 m /period glyphshow
37.582031 0.000000 m /zero glyphshow
grestore
/DejaVuSerif findfont
38.000 scalefont
setfont
gsave
725.960938 4.481250 translate
0.000000 rotate
0.000000 0.000000 m /lambda glyphshow
grestore
gsave
/o {
gsave
newpath
translate
0.8 setlinewidth
1 setlinejoin
0 setlinecap
0 0 m
-3.5 0 l

gsave
0.000 setgray
fill
grestore
stroke
grestore
} bind def
180 81.9221 o
grestore
/DejaVuSerif-Bold findfont
36.000 scalefont
setfont
gsave
110.375000 68.242371 translate
0.000000 rotate
0.000000 0.000000 m /zero glyphshow
25.048828 0.000000 m /period glyphshow
37.582031 0.000000 m /five glyphshow
grestore
gsave
/o {
gsave
newpath
translate
0.8 setlinewidth
1 setlinejoin
0 setlinecap
0 0 m
-3.5 0 l

gsave
0.000 setgray
fill
grestore
stroke
grestore
} bind def
180 187.804 o
grestore
gsave
110.375000 174.124724 translate
0.000000 rotate
0.000000 0.000000 m /zero glyphshow
25.048828 0.000000 m /period glyphshow
37.582031 0.000000 m /six glyphshow
grestore
gsave
/o {
gsave
newpath
translate
0.8 setlinewidth
1 setlinejoin
0 setlinecap
0 0 m
-3.5 0 l

gsave
0.000 setgray
fill
grestore
stroke
grestore
} bind def
180 293.687 o
grestore
gsave
110.375000 280.007077 translate
0.000000 rotate
0.000000 0.000000 m /zero glyphshow
25.048828 0.000000 m /period glyphshow
37.582031 0.000000 m /seven glyphshow
grestore
gsave
/o {
gsave
newpath
translate
0.8 setlinewidth
1 setlinejoin
0 setlinecap
0 0 m
-3.5 0 l

gsave
0.000 setgray
fill
grestore
stroke
grestore
} bind def
180 399.569 o
grestore
gsave
110.375000 385.889430 translate
0.000000 rotate
0.000000 0.000000 m /zero glyphshow
25.048828 0.000000 m /period glyphshow
37.582031 0.000000 m /eight glyphshow
grestore
gsave
/o {
gsave
newpath
translate
0.8 setlinewidth
1 setlinejoin
0 setlinecap
0 0 m
-3.5 0 l

gsave
0.000 setgray
fill
grestore
stroke
grestore
} bind def
180 505.451 o
grestore
gsave
110.375000 491.771783 translate
0.000000 rotate
0.000000 0.000000 m /zero glyphshow
25.048828 0.000000 m /period glyphshow
37.582031 0.000000 m /nine glyphshow
grestore
gsave
/o {
gsave
newpath
translate
0.8 setlinewidth
1 setlinejoin
0 setlinecap
0 0 m
-3.5 0 l

gsave
0.000 setgray
fill
grestore
stroke
grestore
} bind def
180 611.334 o
grestore
gsave
110.375000 597.654136 translate
0.000000 rotate
0.000000 0.000000 m /one glyphshow
25.048828 0.000000 m /period glyphshow
37.582031 0.000000 m /zero glyphshow
grestore
/DejaVuSerif findfont
38.000 scalefont
setfont
gsave
98.468750 312.126563 translate
90.000000 rotate
0.000000 0.000000 m /A glyphshow
27.442383 0.000000 m /U glyphshow
59.467773 0.000000 m /C glyphshow
grestore
4.000 setlinewidth
2 setlinecap
0.855 0.647 0.125 setrgbcolor
gsave
1116 554.4 180 79.2 clipbox
230.727273 104.4 m
343.454545 381.260294 l
681.636364 600.238235 l
1245.272727 594.855882 l
stroke
grestore
1.000 setlinewidth
0 setlinecap
gsave
1116 554.4 180 79.2 clipbox
/o {
gsave
newpath
translate
1.0 setlinewidth
1 setlinejoin
0 setlinecap
-6 0 m
6 0 l
0 -6 m
0 6 l

gsave
0.855 0.647 0.125 setrgbcolor
fill
grestore
stroke
grestore
} bind def
230.727 104.4 o
343.455 381.26 o
681.636 600.238 o
1245.27 594.856 o
grestore
4.000 setlinewidth
2 setlinecap
0.604 0.804 0.196 setrgbcolor
gsave
1116 554.4 180 79.2 clipbox
230.727273 172.407353 m
343.454545 344.708824 l
681.636364 548.267647 l
1245.272727 542.444118 l
stroke
grestore
1.000 setlinewidth
0 setlinecap
gsave
1116 554.4 180 79.2 clipbox
/o {
gsave
newpath
translate
1.0 setlinewidth
1 setlinejoin
0 setlinecap
0 -6 m
1.591219 -6 3.117479 -5.367802 4.242641 -4.242641 c
5.367802 -3.117479 6 -1.591219 6 0 c
6 1.591219 5.367802 3.117479 4.242641 4.242641 c
3.117479 5.367802 1.591219 6 0 6 c
-1.591219 6 -3.117479 5.367802 -4.242641 4.242641 c
-5.367802 3.117479 -6 1.591219 -6 0 c
-6 -1.591219 -5.367802 -3.117479 -4.242641 -4.242641 c
-3.117479 -5.367802 -1.591219 -6 0 -6 c
cl

gsave
0.604 0.804 0.196 setrgbcolor
fill
grestore
stroke
grestore
} bind def
230.727 172.407 o
343.455 344.709 o
681.636 548.268 o
1245.27 542.444 o
grestore
4.000 setlinewidth
[25.6 6.4 4 6.4] 0 setdash
0.000 0.502 0.000 setrgbcolor
gsave
1116 554.4 180 79.2 clipbox
230.727273 160.870588 m
343.454545 451.186765 l
681.636364 600.392647 l
1245.272727 591.039706 l
stroke
grestore
1.000 setlinewidth
2 setlinejoin
[] 0 setdash
gsave
1116 554.4 180 79.2 clipbox
/o {
gsave
newpath
translate
1.0 setlinewidth
2 setlinejoin
0 setlinecap
0 6 m
-1.347084 1.854102 l
-5.706339 1.854102 l
-2.179628 -0.708204 l
-3.526712 -4.854102 l
-0 -2.291796 l
3.526712 -4.854102 l
2.179628 -0.708204 l
5.706339 1.854102 l
1.347084 1.854102 l
cl

gsave
0.000 0.502 0.000 setrgbcolor
fill
grestore
stroke
grestore
} bind def
230.727 160.871 o
343.455 451.187 o
681.636 600.393 o
1245.27 591.04 o
grestore
4.000 setlinewidth
1 setlinejoin
[25.6 6.4 4 6.4] 0 setdash
0.678 0.847 0.902 setrgbcolor
gsave
1116 554.4 180 79.2 clipbox
230.727273 205.252941 m
343.454545 470.907353 l
681.636364 608.4 l
1245.272727 597.172059 l
stroke
grestore
gsave
1116 554.4 180 79.2 clipbox
/o {
gsave
newpath
translate
-0.49999 -0.49999 m
0.50001 -0.49999 l
0.50001 0.50001 l
-0.49999 0.50001 l
cl

0.678 0.847 0.902 setrgbcolor
fill
grestore
} bind def
230.727 205.253 o
343.455 470.907 o
681.636 608.4 o
1245.27 597.172 o
grestore
[14.8 6.4] 0 setdash
0.000 0.000 0.545 setrgbcolor
gsave
1116 554.4 180 79.2 clipbox
230.727273 194.708824 m
343.454545 460.892647 l
681.636364 596.841176 l
1245.272727 585.613235 l
stroke
grestore
1.000 setlinewidth
0 setlinejoin
[] 0 setdash
gsave
1116 554.4 180 79.2 clipbox
/o {
gsave
newpath
translate
1.0 setlinewidth
0 setlinejoin
0 setlinecap
0 6 m
-6 -6 l
6 -6 l
cl

gsave
0.000 0.000 0.545 setrgbcolor
fill
grestore
stroke
grestore
} bind def
230.727 194.709 o
343.455 460.893 o
681.636 596.841 o
1245.27 585.613 o
grestore
4.000 setlinewidth
1 setlinejoin
[14.8 6.4] 0 setdash
1.000 0.000 0.000 setrgbcolor
gsave
1116 554.4 180 79.2 clipbox
230.727273 318.061765 m
343.454545 518.466176 l
681.636364 602.135294 l
1245.272727 596.002941 l
stroke
grestore
1.000 setlinewidth
0 setlinejoin
[] 0 setdash
gsave
1116 554.4 180 79.2 clipbox
/o {
gsave
newpath
translate
1.0 setlinewidth
0 setlinejoin
0 setlinecap
0 6 m
-6 -6 l
6 -6 l
cl

gsave
1.000 0.000 0.000 setrgbcolor
fill
grestore
stroke
grestore
} bind def
230.727 318.062 o
343.455 518.466 o
681.636 602.135 o
1245.27 596.003 o
grestore
0.800 setlinewidth
2 setlinecap
[] 0 setdash
0.000 setgray
gsave
180 79.2 m
180 633.6 l
stroke
grestore
gsave
1296 79.2 m
1296 633.6 l
stroke
grestore
gsave
180 79.2 m
1296 79.2 l
stroke
grestore
gsave
180 633.6 m
1296 633.6 l
stroke
grestore
gsave
496.828125 639.600000 translate
0.000000 rotate
0.000000 0.000000 m /A glyphshow
27.442383 0.000000 m /r glyphshow
45.607422 0.000000 m /e glyphshow
68.095703 0.000000 m /a glyphshow
90.750977 0.000000 m /space glyphshow
102.830078 0.000000 m /U glyphshow
134.855469 0.000000 m /n glyphshow
159.329102 0.000000 m /d glyphshow
183.654297 0.000000 m /e glyphshow
206.142578 0.000000 m /r glyphshow
224.307617 0.000000 m /space glyphshow
236.386719 0.000000 m /C glyphshow
265.461914 0.000000 m /u glyphshow
289.935547 0.000000 m /r glyphshow
308.100586 0.000000 m /v glyphshow
329.568359 0.000000 m /e glyphshow
352.056641 0.000000 m /space glyphshow
364.135742 0.000000 m /parenleft glyphshow
378.960938 0.000000 m /A glyphshow
406.403320 0.000000 m /U glyphshow
438.428711 0.000000 m /C glyphshow
467.503906 0.000000 m /parenright glyphshow
grestore
1.000 setlinewidth
0 setlinecap
0.800 setgray
gsave
1094.64625 79.2 m
1290.72 79.2 l
1294.24 79.2 1296 80.96 1296 84.48 c
1296 311.9775 l
1296 315.4975 1294.24 317.2575 1290.72 317.2575 c
1094.64625 317.2575 l
1091.12625 317.2575 1089.36625 315.4975 1089.36625 311.9775 c
1089.36625 84.48 l
1089.36625 80.96 1091.12625 79.2 1094.64625 79.2 c
cl
gsave
1.000 setgray
fill
grestore
stroke
grestore
4.000 setlinewidth
1 setlinejoin
2 setlinecap
[] 0 setdash
0.855 0.647 0.125 setrgbcolor
gsave
1099.92625 296.1875 m
1152.72625 296.1875 l
stroke
grestore
1.000 setlinewidth
0 setlinecap
gsave
/o {
gsave
newpath
translate
1.0 setlinewidth
1 setlinejoin
0 setlinecap
-6 0 m
6 0 l
0 -6 m
0 6 l

gsave
0.855 0.647 0.125 setrgbcolor
fill
grestore
stroke
grestore
} bind def
1126.33 296.188 o
grestore
0.000 setgray
/DejaVuSerif-Bold findfont
26.400 scalefont
setfont
gsave
1173.846250 286.947500 translate
0.000000 rotate
0.000000 0.000000 m /L glyphshow
18.544922 0.000000 m /R glyphshow
grestore
4.000 setlinewidth
2 setlinecap
0.604 0.804 0.196 setrgbcolor
gsave
1099.92625 257.83125 m
1152.72625 257.83125 l
stroke
grestore
1.000 setlinewidth
0 setlinecap
gsave
/o {
gsave
newpath
translate
1.0 setlinewidth
1 setlinejoin
0 setlinecap
0 -6 m
1.591219 -6 3.117479 -5.367802 4.242641 -4.242641 c
5.367802 -3.117479 6 -1.591219 6 0 c
6 1.591219 5.367802 3.117479 4.242641 4.242641 c
3.117479 5.367802 1.591219 6 0 6 c
-1.591219 6 -3.117479 5.367802 -4.242641 4.242641 c
-5.367802 3.117479 -6 1.591219 -6 0 c
-6 -1.591219 -5.367802 -3.117479 -4.242641 -4.242641 c
-3.117479 -5.367802 -1.591219 -6 0 -6 c
cl

gsave
0.604 0.804 0.196 setrgbcolor
fill
grestore
stroke
grestore
} bind def
1126.33 257.831 o
grestore
0.000 setgray
gsave
1173.846250 248.591250 translate
0.000000 rotate
0.000000 0.000000 m /D glyphshow
22.872070 0.000000 m /T glyphshow
grestore
4.000 setlinewidth
[25.6 6.4 4 6.4] 0 setdash
0.000 0.502 0.000 setrgbcolor
gsave
1099.92625 219.475 m
1152.72625 219.475 l
stroke
grestore
1.000 setlinewidth
2 setlinejoin
[] 0 setdash
gsave
/o {
gsave
newpath
translate
1.0 setlinewidth
2 setlinejoin
0 setlinecap
0 6 m
-1.347084 1.854102 l
-5.706339 1.854102 l
-2.179628 -0.708204 l
-3.526712 -4.854102 l
-0 -2.291796 l
3.526712 -4.854102 l
2.179628 -0.708204 l
5.706339 1.854102 l
1.347084 1.854102 l
cl

gsave
0.000 0.502 0.000 setrgbcolor
fill
grestore
stroke
grestore
} bind def
1126.33 219.475 o
grestore
0.000 setgray
gsave
1173.846250 210.235000 translate
0.000000 rotate
0.000000 0.000000 m /S glyphshow
19.047180 0.000000 m /V glyphshow
39.510986 0.000000 m /M glyphshow
grestore
4.000 setlinewidth
1 setlinejoin
[25.6 6.4 4 6.4] 0 setdash
0.678 0.847 0.902 setrgbcolor
gsave
1099.92625 181.11875 m
1152.72625 181.11875 l
stroke
grestore
gsave
/o {
gsave
newpath
translate
-0.49999 -0.49999 m
0.50001 -0.49999 l
0.50001 0.50001 l
-0.49999 0.50001 l
cl

0.678 0.847 0.902 setrgbcolor
fill
grestore
} bind def
1126.33 181.119 o
grestore
0.000 setgray
gsave
1173.846250 171.878750 translate
0.000000 rotate
0.000000 0.000000 m /N glyphshow
24.108398 0.000000 m /B glyphshow
grestore
[14.8 6.4] 0 setdash
0.000 0.000 0.545 setrgbcolor
gsave
1099.92625 142.7625 m
1152.72625 142.7625 l
stroke
grestore
1.000 setlinewidth
0 setlinejoin
[] 0 setdash
gsave
/o {
gsave
newpath
translate
1.0 setlinewidth
0 setlinejoin
0 setlinecap
0 6 m
-6 -6 l
6 -6 l
cl

gsave
0.000 0.000 0.545 setrgbcolor
fill
grestore
stroke
grestore
} bind def
1126.33 142.762 o
grestore
0.000 setgray
gsave
1173.846250 133.522500 translate
0.000000 rotate
0.000000 0.000000 m /G glyphshow
22.524353 0.000000 m /B glyphshow
grestore
4.000 setlinewidth
1 setlinejoin
[14.8 6.4] 0 setdash
1.000 0.000 0.000 setrgbcolor
gsave
1099.92625 104.40625 m
1152.72625 104.40625 l
stroke
grestore
1.000 setlinewidth
0 setlinejoin
[] 0 setdash
gsave
/o {
gsave
newpath
translate
1.0 setlinewidth
0 setlinejoin
0 setlinecap
0 6 m
-6 -6 l
6 -6 l
cl

gsave
1.000 0.000 0.000 setrgbcolor
fill
grestore
stroke
grestore
} bind def
1126.33 104.406 o
grestore
0.000 setgray
gsave
1173.846250 95.166250 translate
0.000000 rotate
0.000000 0.000000 m /M glyphshow
29.195374 0.000000 m /L glyphshow
47.740295 0.000000 m /R glyphshow
69.659363 0.000000 m /D glyphshow
92.531433 0.000000 m /S glyphshow
grestore

end
showpage
