%!PS-Adobe-3.0 EPSF-3.0
%%Title: figures/tpr_partitions.eps
%%Creator: matplotlib version 2.2.2, http://matplotlib.org/
%%CreationDate: Mon Jul 16 04:22:40 2018
%%Orientation: portrait
%%BoundingBox: -414 36 1026 756
%%EndComments
%%BeginProlog
/mpldict 9 dict def
mpldict begin
/m { moveto } bind def
/l { lineto } bind def
/r { rlineto } bind def
/c { curveto } bind def
/cl { closepath } bind def
/box {
m
1 index 0 r
0 exch r
neg 0 r
cl
} bind def
/clipbox {
box
clip
newpath
} bind def
%!PS-Adobe-3.0 Resource-Font
%%Title: DejaVu Serif
%%Copyright: Copyright (c) 2003 by Bitstream, Inc. All Rights Reserved. DejaVu changes are in public domain 
%%Creator: Converted from TrueType to type 3 by PPR
25 dict begin
/_d{bind def}bind def
/_m{moveto}_d
/_l{lineto}_d
/_cl{closepath eofill}_d
/_c{curveto}_d
/_sc{7 -1 roll{setcachedevice}{pop pop pop pop pop pop}ifelse}_d
/_e{exec}_d
/FontName /DejaVuSerif def
/PaintType 0 def
/FontMatrix[.001 0 0 .001 0 0]def
/FontBBox[-770 -347 2105 1109]def
/FontType 3 def
/Encoding [ /space /parenleft /parenright /P /R /S /T /a /e /i /k /n /o /r /s /t /v /y ] def
/FontInfo 10 dict dup begin
/FamilyName (DejaVu Serif) def
/FullName (DejaVu Serif) def
/Notice (Copyright (c) 2003 by Bitstream, Inc. All Rights Reserved. DejaVu changes are in public domain ) def
/Weight (Book) def
/Version (Version 2.35) def
/ItalicAngle 0.0 def
/isFixedPitch false def
/UnderlinePosition -130 def
/UnderlineThickness 90 def
end readonly def
/CharStrings 19 dict dup begin
/.notdef 0 def
/space{318 0 0 0 0 0 _sc
}_d
/parenleft{390 0 79 -155 319 760 _sc
319 -155 _m
239 -119 179 -63 139 13 _c
99 89 79 186 79 302 _c
79 418 99 514 139 591 _c
179 668 239 724 319 760 _c
319 712 _l
269 677 233 628 211 566 _c
189 503 178 415 178 302 _c
178 188 189 100 211 38 _c
233 -24 269 -72 319 -107 _c
319 -155 _l
_cl}_d
/parenright{390 0 71 -155 311 760 _sc
71 -155 _m
71 -107 _l
121 -72 157 -24 179 38 _c
201 100 212 188 212 302 _c
212 415 201 503 179 566 _c
157 628 121 677 71 712 _c
71 760 _l
150 724 210 668 250 591 _c
290 514 311 418 311 302 _c
311 186 290 89 250 13 _c
210 -63 150 -119 71 -155 _c
_cl}_d
/P{{673 0 55 0 637 729 _sc
247 371 _m
376 371 _l
424 371 461 384 487 410 _c
512 436 525 474 525 524 _c
525 574 512 612 487 638 _c
461 664 424 677 376 677 _c
247 677 _l
247 371 _l
55 0 _m
55 52 _l
148 52 _l
148 677 _l
55 677 _l
55 729 _l
400 729 _l
472 729 530 710 573 673 _c
615 636 637 586 637 524 _c
637 461 615 411 573 374 _c
530 337 472 319 400 319 _c
247 319 _l
}_e{247 52 _l
360 52 _l
360 0 _l
55 0 _l
_cl}_e}_d
/R{{753 0 55 0 777 729 _sc
479 362 _m
501 356 521 345 538 330 _c
554 315 569 294 582 268 _c
688 52 _l
777 52 _l
777 0 _l
605 0 _l
491 232 _l
469 276 449 305 431 319 _c
413 332 388 339 356 339 _c
247 339 _l
247 52 _l
350 52 _l
350 0 _l
55 0 _l
55 52 _l
148 52 _l
148 677 _l
55 677 _l
55 729 _l
425 729 _l
495 729 550 712 589 678 _c
}_e{627 644 647 596 647 534 _c
647 484 633 444 605 416 _c
577 387 535 369 479 362 _c
247 391 _m
391 391 _l
440 391 476 402 500 426 _c
523 449 535 485 535 534 _c
535 582 523 618 500 642 _c
476 665 440 677 391 677 _c
247 677 _l
247 391 _l
_cl}_e}_d
/S{{685 0 84 -13 612 742 _sc
93 35 _m
93 201 _l
149 201 _l
150 145 166 104 197 78 _c
227 51 274 38 336 38 _c
394 38 438 49 468 72 _c
498 95 514 129 514 173 _c
514 208 504 235 486 254 _c
468 272 429 291 370 309 _c
274 338 _l
204 359 154 385 126 417 _c
98 448 84 491 84 547 _c
84 609 106 657 150 691 _c
194 725 255 742 335 742 _c
369 742 406 738 446 731 _c
}_e{486 723 529 713 575 699 _c
575 544 _l
520 544 _l
514 595 497 632 468 655 _c
439 678 395 690 337 690 _c
285 690 246 679 219 658 _c
192 637 179 607 179 567 _c
179 532 189 505 209 485 _c
229 465 272 445 338 426 _c
428 399 _l
494 379 541 353 569 323 _c
597 292 612 251 612 199 _c
612 128 589 75 544 40 _c
498 4 431 -13 342 -13 _c
302 -13 261 -9 219 -1 _c
}_e{177 6 135 18 93 35 _c
_cl}_e}_d
/T{667 0 10 0 657 729 _sc
191 0 _m
191 52 _l
284 52 _l
284 671 _l
70 671 _l
70 557 _l
10 557 _l
10 729 _l
657 729 _l
657 557 _l
597 557 _l
597 671 _l
383 671 _l
383 52 _l
476 52 _l
476 0 _l
191 0 _l
_cl}_d
/a{{596 0 50 -13 568 533 _sc
398 163 _m
398 273 _l
282 273 _l
237 273 204 263 182 244 _c
160 224 150 195 150 156 _c
150 120 161 91 183 70 _c
205 48 235 38 273 38 _c
310 38 340 49 363 72 _c
386 95 398 125 398 163 _c
488 324 _m
488 52 _l
568 52 _l
568 0 _l
398 0 _l
398 56 _l
378 32 355 14 329 3 _c
303 -7 272 -13 238 -13 _c
180 -13 134 2 100 32 _c
}_e{66 62 50 104 50 156 _c
50 209 69 250 108 280 _c
146 310 201 325 272 325 _c
398 325 _l
398 361 _l
398 400 386 430 362 452 _c
338 474 304 485 261 485 _c
225 485 197 476 176 460 _c
154 444 141 420 136 388 _c
90 388 _l
90 493 _l
121 506 151 516 181 523 _c
210 529 239 533 267 533 _c
339 533 393 515 431 479 _c
469 443 488 392 488 324 _c
_cl}_e}_d
/e{{592 0 50 -13 542 533 _sc
542 250 _m
155 250 _l
155 246 _l
155 176 168 123 194 87 _c
220 51 259 34 311 34 _c
350 34 382 44 408 65 _c
433 85 451 116 461 157 _c
533 157 _l
519 100 492 57 454 29 _c
415 1 364 -13 302 -13 _c
226 -13 165 11 119 61 _c
73 111 50 177 50 260 _c
50 342 72 408 118 458 _c
163 508 222 533 296 533 _c
374 533 435 508 477 460 _c
}_e{519 412 540 342 542 250 _c
436 302 _m
434 362 421 408 397 439 _c
373 469 340 485 296 485 _c
254 485 222 469 198 438 _c
174 407 160 362 155 302 _c
436 302 _l
_cl}_e}_d
/i{320 0 36 0 297 736 _sc
97 680 _m
97 695 102 708 113 719 _c
124 730 137 736 153 736 _c
167 736 180 730 191 719 _c
202 708 208 695 208 680 _c
208 664 202 651 192 641 _c
181 630 168 625 153 625 _c
137 625 124 630 113 641 _c
102 651 97 664 97 680 _c
212 52 _m
297 52 _l
297 0 _l
36 0 _l
36 52 _l
122 52 _l
122 467 _l
36 467 _l
36 519 _l
212 519 _l
212 52 _l
_cl}_d
/k{{606 0 29 0 613 760 _sc
286 0 _m
34 0 _l
34 52 _l
115 52 _l
115 708 _l
29 708 _l
29 760 _l
205 760 _l
205 265 _l
424 467 _l
349 467 _l
349 519 _l
584 519 _l
584 467 _l
495 467 _l
341 324 _l
538 52 _l
613 52 _l
613 0 _l
357 0 _l
357 52 _l
431 52 _l
276 265 _l
205 199 _l
205 52 _l
286 52 _l
286 0 _l
_cl}_e}_d
/n{{644 0 36 0 616 533 _sc
41 0 _m
41 52 _l
122 52 _l
122 467 _l
36 467 _l
36 519 _l
212 519 _l
212 427 _l
228 461 250 488 276 506 _c
302 524 333 533 369 533 _c
426 533 468 516 495 484 _c
522 451 536 400 536 330 _c
536 52 _l
616 52 _l
616 0 _l
368 0 _l
368 52 _l
446 52 _l
446 302 _l
446 365 438 408 422 432 _c
406 456 379 468 340 468 _c
}_e{298 468 266 452 244 422 _c
222 391 212 347 212 289 _c
212 52 _l
290 52 _l
290 0 _l
41 0 _l
_cl}_e}_d
/o{602 0 50 -13 552 533 _sc
301 34 _m
349 34 385 53 410 91 _c
434 129 447 185 447 260 _c
447 334 434 390 410 428 _c
385 466 349 485 301 485 _c
253 485 216 466 192 428 _c
167 390 155 334 155 260 _c
155 185 167 129 192 91 _c
216 53 253 34 301 34 _c
301 -13 _m
225 -13 165 11 119 61 _c
73 111 50 177 50 260 _c
50 342 72 408 118 458 _c
164 508 225 533 301 533 _c
377 533 437 508 483 458 _c
529 408 552 342 552 260 _c
552 177 529 111 483 61 _c
437 11 377 -13 301 -13 _c
_cl}_d
/r{478 0 36 0 478 533 _sc
478 520 _m
478 390 _l
426 390 _l
424 416 417 435 405 448 _c
392 460 373 467 349 467 _c
305 467 271 451 247 421 _c
223 390 212 346 212 289 _c
212 52 _l
316 52 _l
316 0 _l
41 0 _l
41 52 _l
122 52 _l
122 468 _l
36 468 _l
36 519 _l
212 519 _l
212 427 _l
229 463 251 489 279 507 _c
307 524 341 533 381 533 _c
395 533 411 531 427 529 _c
443 527 460 524 478 520 _c
_cl}_d
/s{{513 0 56 -13 462 533 _sc
56 29 _m
56 150 _l
108 150 _l
109 111 121 82 144 63 _c
167 43 201 34 246 34 _c
286 34 317 41 338 57 _c
359 72 370 94 370 123 _c
370 145 362 164 347 178 _c
331 192 299 207 249 223 _c
184 245 _l
139 259 107 277 87 299 _c
67 320 57 347 57 381 _c
57 428 74 465 109 492 _c
144 519 192 533 254 533 _c
281 533 310 529 340 522 _c
}_e{370 515 402 505 434 491 _c
434 378 _l
382 378 _l
380 411 369 437 347 456 _c
325 475 295 485 257 485 _c
219 485 190 478 171 465 _c
151 451 142 431 142 405 _c
142 383 149 365 164 352 _c
178 339 208 326 252 312 _c
323 290 _l
372 274 407 255 429 232 _c
451 209 462 180 462 144 _c
462 94 443 56 405 28 _c
367 0 316 -13 250 -13 _c
216 -13 184 -9 152 -3 _c
}_e{120 3 88 14 56 29 _c
_cl}_e}_d
/t{402 0 29 -13 394 680 _sc
108 467 _m
29 467 _l
29 519 _l
108 519 _l
108 680 _l
198 680 _l
198 519 _l
367 519 _l
367 467 _l
198 467 _l
198 137 _l
198 93 202 64 211 52 _c
219 40 235 34 258 34 _c
281 34 298 41 309 55 _c
319 69 325 91 326 122 _c
394 122 _l
391 74 378 40 355 19 _c
332 -2 297 -13 250 -13 _c
198 -13 161 -1 140 21 _c
118 43 108 82 108 137 _c
108 467 _l
_cl}_d
/v{565 0 -2 0 562 519 _sc
247 0 _m
56 467 _l
-2 467 _l
-2 519 _l
236 519 _l
236 467 _l
153 467 _l
299 110 _l
445 467 _l
367 467 _l
367 519 _l
562 519 _l
562 467 _l
504 467 _l
313 0 _l
247 0 _l
_cl}_d
/y{{565 0 -2 -221 562 519 _sc
216 -94 _m
250 -8 _l
56 467 _l
-2 467 _l
-2 519 _l
236 519 _l
236 467 _l
153 467 _l
299 110 _l
445 467 _l
367 467 _l
367 519 _l
562 519 _l
562 467 _l
504 467 _l
266 -116 _l
250 -156 232 -184 212 -199 _c
192 -213 164 -221 128 -221 _c
112 -221 97 -219 81 -217 _c
65 -214 48 -210 32 -206 _c
32 -107 _l
78 -107 _l
80 -129 85 -144 95 -154 _c
}_e{104 -164 118 -169 138 -169 _c
156 -169 170 -164 181 -154 _c
192 -144 204 -124 216 -94 _c
_cl}_e}_d
end readonly def

/BuildGlyph
 {exch begin
 CharStrings exch
 2 copy known not{pop /.notdef}if
 true 3 1 roll get exec
 end}_d

/BuildChar {
 1 index /Encoding get exch get
 1 index /BuildGlyph get exec
}_d

FontName currentdict end definefont pop
%!PS-Adobe-3.0 Resource-Font
%%Title: DejaVu Serif Bold
%%Copyright: Copyright (c) 2003 by Bitstream, Inc. All Rights Reserved. DejaVu changes are in public domain 
%%Creator: Converted from TrueType to type 3 by PPR
25 dict begin
/_d{bind def}bind def
/_m{moveto}_d
/_l{lineto}_d
/_cl{closepath eofill}_d
/_c{curveto}_d
/_sc{7 -1 roll{setcachedevice}{pop pop pop pop pop pop}ifelse}_d
/_e{exec}_d
/FontName /DejaVuSerif-Bold def
/PaintType 0 def
/FontMatrix[.001 0 0 .001 0 0]def
/FontBBox[-836 -389 1796 1145]def
/FontType 3 def
/Encoding [ /period /zero /one /two /three /four /five /six /seven /eight /nine /B /D /G /L /M /N /R /S /T /V ] def
/FontInfo 10 dict dup begin
/FamilyName (DejaVu Serif) def
/FullName (DejaVu Serif Bold) def
/Notice (Copyright (c) 2003 by Bitstream, Inc. All Rights Reserved. DejaVu changes are in public domain ) def
/Weight (Bold) def
/Version (Version 2.35) def
/ItalicAngle 0.0 def
/isFixedPitch false def
/UnderlinePosition -130 def
/UnderlineThickness 90 def
end readonly def
/CharStrings 22 dict dup begin
/.notdef 0 def
/period{348 0 81 -13 267 172 _sc
81 79 _m
81 104 90 126 108 144 _c
126 162 148 172 174 172 _c
199 172 221 162 239 144 _c
257 126 267 104 267 79 _c
267 53 257 32 239 14 _c
221 -4 199 -13 174 -13 _c
148 -13 126 -4 108 14 _c
90 32 81 53 81 79 _c
_cl}_d
/zero{696 0 47 -13 649 742 _sc
348 43 _m
387 43 414 60 428 96 _c
442 131 450 220 450 364 _c
450 506 442 595 428 631 _c
414 667 387 685 348 685 _c
309 685 282 667 268 632 _c
253 596 246 507 246 364 _c
246 220 253 131 268 96 _c
282 60 309 43 348 43 _c
348 -13 _m
250 -13 176 19 124 84 _c
72 148 47 242 47 364 _c
47 486 72 579 124 644 _c
176 709 250 742 348 742 _c
445 742 519 709 571 644 _c
623 579 649 486 649 364 _c
649 242 623 148 571 84 _c
519 19 445 -13 348 -13 _c
_cl}_d
/one{696 0 122 0 596 742 _sc
137 0 _m
137 59 _l
274 59 _l
274 649 _l
122 559 _l
122 632 _l
305 742 _l
459 742 _l
459 59 _l
596 59 _l
596 0 _l
137 0 _l
_cl}_d
/two{{696 0 67 0 606 742 _sc
132 549 _m
73 549 _l
73 706 _l
113 718 152 727 191 733 _c
230 739 269 742 309 742 _c
401 742 474 723 526 685 _c
578 647 604 594 604 527 _c
604 479 589 435 561 397 _c
532 359 477 313 397 261 _c
194 128 _l
539 128 _l
539 214 _l
606 214 _l
606 0 _l
67 0 _l
67 119 _l
175 194 _l
267 257 328 311 359 356 _c
389 400 405 452 405 512 _c
}_e{405 568 393 611 370 641 _c
346 670 312 685 268 685 _c
229 685 198 673 175 650 _c
152 626 138 593 132 549 _c
_cl}_e}_d
/three{{696 0 70 -13 632 742 _sc
86 708 _m
128 719 170 727 210 733 _c
250 739 290 742 329 742 _c
417 742 484 726 531 695 _c
578 663 602 618 602 560 _c
602 516 588 480 561 453 _c
534 425 495 407 443 398 _c
506 388 553 366 585 333 _c
616 299 632 254 632 197 _c
632 129 605 77 551 41 _c
497 5 419 -13 317 -13 _c
278 -13 238 -10 198 -4 _c
157 2 114 11 70 25 _c
70 185 _l
}_e{129 185 _l
132 139 146 103 172 79 _c
197 55 232 43 278 43 _c
327 43 365 56 392 84 _c
419 111 433 150 433 201 _c
433 253 419 294 391 323 _c
363 351 323 366 271 366 _c
239 366 _l
239 425 _l
264 425 _l
312 425 348 436 372 458 _c
396 480 408 513 408 557 _c
408 598 396 630 374 652 _c
351 674 319 685 277 685 _c
238 685 207 674 185 653 _c
163 632 149 602 145 562 _c
}_e{86 562 _l
86 708 _l
_cl}_e}_d
/four{696 0 41 0 655 742 _sc
638 0 _m
237 0 _l
237 59 _l
345 59 _l
345 192 _l
41 192 _l
41 248 _l
346 742 _l
530 742 _l
530 255 _l
655 255 _l
655 192 _l
530 192 _l
530 59 _l
638 59 _l
638 0 _l
345 255 _m
345 609 _l
128 255 _l
345 255 _l
_cl}_d
/five{{696 0 82 -13 620 729 _sc
564 729 _m
564 601 _l
174 601 _l
174 441 _l
195 457 219 470 245 478 _c
271 486 299 491 329 491 _c
419 491 490 468 542 423 _c
594 377 620 316 620 238 _c
620 158 594 97 542 53 _c
490 9 417 -13 323 -13 _c
283 -13 244 -10 205 -4 _c
165 2 124 12 82 26 _c
82 185 _l
141 185 _l
143 137 155 101 178 78 _c
200 54 234 43 280 43 _c
}_e{328 43 363 59 386 91 _c
409 123 421 172 421 238 _c
421 302 409 351 387 383 _c
364 415 330 431 284 431 _c
259 431 237 425 218 415 _c
198 405 180 389 164 368 _c
115 368 _l
115 729 _l
564 729 _l
_cl}_e}_d
/six{{696 0 63 -13 642 742 _sc
246 432 _m
267 449 291 462 317 470 _c
343 478 371 483 403 483 _c
477 483 536 461 578 417 _c
620 373 642 314 642 238 _c
642 157 618 95 570 52 _c
522 8 454 -13 366 -13 _c
266 -13 191 16 140 76 _c
88 136 63 224 63 341 _c
63 473 91 573 148 641 _c
205 708 290 742 402 742 _c
431 742 462 739 496 735 _c
529 730 565 723 604 713 _c
604 584 _l
}_e{545 584 _l
537 617 521 642 499 659 _c
476 676 447 685 411 685 _c
353 685 311 665 285 625 _c
259 585 246 521 246 432 _c
355 43 _m
388 43 412 57 426 85 _c
440 113 448 163 448 234 _c
448 304 440 353 426 382 _c
412 410 388 425 355 425 _c
321 425 297 410 283 382 _c
269 353 262 304 262 234 _c
262 163 269 113 283 85 _c
297 57 321 43 355 43 _c
_cl}_e}_d
/seven{696 0 79 0 613 729 _sc
613 605 _m
312 0 _l
213 0 _l
506 591 _l
146 591 _l
146 492 _l
79 492 _l
79 729 _l
613 729 _l
613 605 _l
_cl}_d
/eight{{696 0 52 -13 642 742 _sc
465 388 _m
523 378 567 357 597 324 _c
627 290 642 247 642 194 _c
642 126 616 75 566 40 _c
515 4 442 -13 347 -13 _c
251 -13 178 4 128 40 _c
77 75 52 126 52 194 _c
52 247 67 290 97 324 _c
127 357 171 378 229 388 _c
177 400 139 419 114 447 _c
88 474 76 509 76 552 _c
76 614 99 661 145 693 _c
191 725 259 742 347 742 _c
}_e{435 742 502 725 548 693 _c
594 661 618 614 618 552 _c
618 509 605 474 580 447 _c
554 419 516 400 465 388 _c
429 550 _m
429 601 422 636 410 656 _c
398 675 377 685 347 685 _c
317 685 295 675 283 656 _c
271 636 265 601 265 550 _c
265 498 271 463 283 444 _c
295 425 317 416 347 416 _c
377 416 399 425 411 444 _c
423 463 429 498 429 550 _c
448 202 _m
448 262 440 303 425 325 _c
}_e{410 347 384 359 347 359 _c
309 359 283 347 268 325 _c
253 303 246 262 246 202 _c
246 142 253 100 269 77 _c
284 54 310 43 347 43 _c
383 43 409 54 425 77 _c
440 100 448 142 448 202 _c
_cl}_e}_d
/nine{{696 0 54 -13 633 742 _sc
341 685 _m
307 685 283 670 269 642 _c
255 614 248 564 248 494 _c
248 424 255 374 269 346 _c
283 317 307 303 341 303 _c
374 303 398 317 412 346 _c
426 374 434 424 434 494 _c
434 564 426 614 412 642 _c
398 670 374 685 341 685 _c
450 297 _m
428 279 404 266 378 258 _c
352 249 323 245 293 245 _c
219 245 160 266 118 310 _c
75 353 54 413 54 490 _c
}_e{54 570 77 632 125 676 _c
173 720 241 742 329 742 _c
429 742 504 712 556 652 _c
607 592 633 503 633 387 _c
633 254 604 154 547 87 _c
490 20 406 -13 294 -13 _c
264 -13 233 -10 199 -6 _c
165 -2 130 5 92 15 _c
92 144 _l
151 144 _l
159 110 174 85 197 68 _c
219 51 249 43 285 43 _c
342 43 384 63 410 103 _c
436 143 449 207 450 297 _c
_cl}_e}_d
/B{{845 0 47 0 790 729 _sc
47 0 _m
47 59 _l
140 59 _l
140 670 _l
47 670 _l
47 729 _l
479 729 _l
567 729 634 714 679 684 _c
723 654 746 609 746 549 _c
746 505 730 471 700 446 _c
669 420 623 404 563 398 _c
636 391 692 371 731 339 _c
770 307 790 264 790 211 _c
790 139 762 85 708 51 _c
653 17 568 0 452 0 _c
47 0 _l
328 425 _m
392 425 _l
}_e{448 425 489 435 516 455 _c
543 475 557 507 557 549 _c
557 591 544 621 518 641 _c
492 660 450 670 392 670 _c
328 670 _l
328 425 _l
328 59 _m
398 59 _l
460 59 506 71 536 96 _c
566 120 581 159 581 211 _c
581 263 565 301 535 327 _c
505 353 459 366 398 366 _c
328 366 _l
328 59 _l
_cl}_e}_d
/D{867 0 47 0 825 729 _sc
328 59 _m
396 59 _l
472 59 527 83 563 132 _c
598 181 616 259 616 365 _c
616 471 598 548 563 597 _c
528 645 472 670 396 670 _c
328 670 _l
328 59 _l
47 0 _m
47 59 _l
140 59 _l
140 670 _l
47 670 _l
47 729 _l
421 729 _l
551 729 651 697 721 635 _c
790 573 825 483 825 365 _c
825 247 790 156 721 94 _c
651 31 551 0 421 0 _c
47 0 _l
_cl}_d
/G{{854 0 42 -13 775 742 _sc
688 500 _m
673 564 648 611 614 640 _c
580 668 532 683 470 683 _c
394 683 339 657 304 606 _c
268 554 251 474 251 364 _c
251 254 268 174 302 122 _c
336 70 388 45 460 45 _c
487 45 512 48 536 54 _c
559 60 580 69 600 82 _c
600 282 _l
512 282 _l
512 341 _l
775 341 _l
775 61 _l
720 35 665 17 611 5 _c
556 -7 500 -13 444 -13 _c
}_e{318 -13 220 20 149 87 _c
77 154 42 246 42 364 _c
42 481 77 573 149 641 _c
220 708 318 742 444 742 _c
496 742 547 736 597 726 _c
647 716 698 700 750 679 _c
750 500 _l
688 500 _l
_cl}_e}_d
/L{703 0 47 0 681 729 _sc
47 0 _m
47 59 _l
140 59 _l
140 670 _l
47 670 _l
47 729 _l
422 729 _l
422 670 _l
328 670 _l
328 67 _l
615 67 _l
615 182 _l
681 182 _l
681 0 _l
47 0 _l
_cl}_d
/M{1107 0 42 0 1060 729 _sc
42 0 _m
42 59 _l
135 59 _l
135 670 _l
42 670 _l
42 729 _l
343 729 _l
551 261 _l
760 729 _l
1060 729 _l
1060 670 _l
967 670 _l
967 59 _l
1060 59 _l
1060 0 _l
685 0 _l
685 59 _l
778 59 _l
778 615 _l
552 107 _l
428 107 _l
203 615 _l
203 59 _l
296 59 _l
296 0 _l
42 0 _l
_cl}_d
/N{914 0 44 0 874 729 _sc
44 0 _m
44 59 _l
137 59 _l
137 670 _l
44 670 _l
44 729 _l
272 729 _l
712 213 _l
712 670 _l
619 670 _l
619 729 _l
874 729 _l
874 670 _l
781 670 _l
781 0 _l
653 0 _l
206 527 _l
206 59 _l
299 59 _l
299 0 _l
44 0 _l
_cl}_d
/R{{831 0 47 0 837 729 _sc
531 356 _m
559 352 584 342 604 327 _c
624 312 641 290 656 262 _c
762 59 _l
837 59 _l
837 0 _l
597 0 _l
481 220 _l
458 266 439 295 423 307 _c
407 319 386 326 358 326 _c
328 326 _l
328 59 _l
422 59 _l
422 0 _l
47 0 _l
47 59 _l
140 59 _l
140 670 _l
47 670 _l
47 729 _l
463 729 _l
547 729 613 712 659 678 _c
}_e{705 644 728 595 728 533 _c
728 482 711 442 679 413 _c
646 383 597 364 531 356 _c
328 385 _m
392 385 _l
437 385 472 397 497 422 _c
521 446 534 482 534 528 _c
534 574 521 609 497 633 _c
472 657 437 670 392 670 _c
328 670 _l
328 385 _l
_cl}_e}_d
/S{{722 0 66 -13 662 742 _sc
77 35 _m
77 208 _l
139 208 _l
148 153 170 112 206 85 _c
241 58 290 45 352 45 _c
402 45 441 54 467 74 _c
493 93 507 121 507 158 _c
507 187 498 210 480 226 _c
462 242 425 258 369 272 _c
260 299 _l
188 317 138 342 109 374 _c
80 406 66 453 66 513 _c
66 585 90 642 138 682 _c
186 722 253 742 340 742 _c
382 742 427 738 473 731 _c
}_e{519 724 566 713 616 699 _c
616 538 _l
554 538 _l
544 588 524 624 492 648 _c
460 671 414 683 356 683 _c
308 683 271 674 247 658 _c
222 641 210 616 210 583 _c
210 553 218 530 235 514 _c
252 498 294 481 360 465 _c
469 438 _l
537 421 586 395 616 359 _c
646 323 662 273 662 211 _c
662 137 636 82 586 44 _c
535 6 460 -13 362 -13 _c
314 -13 267 -9 220 -1 _c
}_e{173 6 125 18 77 35 _c
_cl}_e}_d
/T{744 0 11 0 734 729 _sc
181 0 _m
181 59 _l
278 59 _l
278 662 _l
78 662 _l
78 547 _l
11 547 _l
11 729 _l
734 729 _l
734 547 _l
668 547 _l
668 662 _l
467 662 _l
467 59 _l
564 59 _l
564 0 _l
181 0 _l
_cl}_d
/V{776 0 -5 0 790 729 _sc
790 729 _m
790 670 _l
729 670 _l
454 0 _l
338 0 _l
63 670 _l
-5 670 _l
-5 729 _l
336 729 _l
336 670 _l
265 670 _l
462 187 _l
660 670 _l
573 670 _l
573 729 _l
790 729 _l
_cl}_d
end readonly def

/BuildGlyph
 {exch begin
 CharStrings exch
 2 copy known not{pop /.notdef}if
 true 3 1 roll get exec
 end}_d

/BuildChar {
 1 index /Encoding get exch get
 1 index /BuildGlyph get exec
}_d

FontName currentdict end definefont pop
end
%%EndProlog
mpldict begin
-414 36 translate
1440 720 0 0 clipbox
gsave
0 0 m
1440 0 l
1440 720 l
0 720 l
cl
1.000 setgray
fill
grestore
gsave
180 79.2 m
1296 79.2 l
1296 633.6 l
180 633.6 l
cl
1.000 setgray
fill
grestore
0.800 setlinewidth
1 setlinejoin
0 setlinecap
[] 0 setdash
0.000 setgray
gsave
/o {
gsave
newpath
translate
0.8 setlinewidth
1 setlinejoin
0 setlinecap
0 0 m
0 -3.5 l

gsave
0.000 setgray
fill
grestore
stroke
grestore
} bind def
230.727 79.2 o
grestore
/DejaVuSerif-Bold findfont
36.000 scalefont
setfont
gsave
218.203835 44.840625 translate
0.000000 rotate
0.000000 0.000000 m /three glyphshow
grestore
gsave
/o {
gsave
newpath
translate
0.8 setlinewidth
1 setlinejoin
0 setlinecap
0 0 m
0 -3.5 l

gsave
0.000 setgray
fill
grestore
stroke
grestore
} bind def
484.364 79.2 o
grestore
gsave
471.840199 44.840625 translate
0.000000 rotate
0.000000 0.000000 m /five glyphshow
grestore
gsave
/o {
gsave
newpath
translate
0.8 setlinewidth
1 setlinejoin
0 setlinecap
0 0 m
0 -3.5 l

gsave
0.000 setgray
fill
grestore
stroke
grestore
} bind def
738 79.2 o
grestore
gsave
725.476562 44.840625 translate
0.000000 rotate
0.000000 0.000000 m /seven glyphshow
grestore
gsave
/o {
gsave
newpath
translate
0.8 setlinewidth
1 setlinejoin
0 setlinecap
0 0 m
0 -3.5 l

gsave
0.000 setgray
fill
grestore
stroke
grestore
} bind def
991.636 79.2 o
grestore
gsave
979.112926 44.840625 translate
0.000000 rotate
0.000000 0.000000 m /nine glyphshow
grestore
gsave
/o {
gsave
newpath
translate
0.8 setlinewidth
1 setlinejoin
0 setlinecap
0 0 m
0 -3.5 l

gsave
0.000 setgray
fill
grestore
stroke
grestore
} bind def
1245.27 79.2 o
grestore
gsave
1220.225852 44.840625 translate
0.000000 rotate
0.000000 0.000000 m /one glyphshow
25.048828 0.000000 m /one glyphshow
grestore
/DejaVuSerif findfont
38.000 scalefont
setfont
gsave
611.585938 4.481250 translate
0.000000 rotate
0.000000 0.000000 m /P glyphshow
25.552734 0.000000 m /a glyphshow
48.208008 0.000000 m /r glyphshow
66.373047 0.000000 m /t glyphshow
81.643555 0.000000 m /i glyphshow
93.796875 0.000000 m /t glyphshow
109.067383 0.000000 m /i glyphshow
121.220703 0.000000 m /o glyphshow
144.098633 0.000000 m /n glyphshow
168.572266 0.000000 m /s glyphshow
188.073242 0.000000 m /space glyphshow
200.152344 0.000000 m /parenleft glyphshow
214.977539 0.000000 m /k glyphshow
238.003906 0.000000 m /parenright glyphshow
grestore
gsave
/o {
gsave
newpath
translate
0.8 setlinewidth
1 setlinejoin
0 setlinecap
0 0 m
-3.5 0 l

gsave
0.000 setgray
fill
grestore
stroke
grestore
} bind def
180 104.063 o
grestore
/DejaVuSerif-Bold findfont
36.000 scalefont
setfont
gsave
110.375000 90.383695 translate
0.000000 rotate
0.000000 0.000000 m /zero glyphshow
25.048828 0.000000 m /period glyphshow
37.582031 0.000000 m /zero glyphshow
grestore
gsave
/o {
gsave
newpath
translate
0.8 setlinewidth
1 setlinejoin
0 setlinecap
0 0 m
-3.5 0 l

gsave
0.000 setgray
fill
grestore
stroke
grestore
} bind def
180 205.049 o
grestore
gsave
110.375000 191.368835 translate
0.000000 rotate
0.000000 0.000000 m /zero glyphshow
25.048828 0.000000 m /period glyphshow
37.582031 0.000000 m /two glyphshow
grestore
gsave
/o {
gsave
newpath
translate
0.8 setlinewidth
1 setlinejoin
0 setlinecap
0 0 m
-3.5 0 l

gsave
0.000 setgray
fill
grestore
stroke
grestore
} bind def
180 306.034 o
grestore
gsave
110.375000 292.353974 translate
0.000000 rotate
0.000000 0.000000 m /zero glyphshow
25.048828 0.000000 m /period glyphshow
37.582031 0.000000 m /four glyphshow
grestore
gsave
/o {
gsave
newpath
translate
0.8 setlinewidth
1 setlinejoin
0 setlinecap
0 0 m
-3.5 0 l

gsave
0.000 setgray
fill
grestore
stroke
grestore
} bind def
180 407.019 o
grestore
gsave
110.375000 393.339114 translate
0.000000 rotate
0.000000 0.000000 m /zero glyphshow
25.048828 0.000000 m /period glyphshow
37.582031 0.000000 m /six glyphshow
grestore
gsave
/o {
gsave
newpath
translate
0.8 setlinewidth
1 setlinejoin
0 setlinecap
0 0 m
-3.5 0 l

gsave
0.000 setgray
fill
grestore
stroke
grestore
} bind def
180 508.004 o
grestore
gsave
110.375000 494.324253 translate
0.000000 rotate
0.000000 0.000000 m /zero glyphshow
25.048828 0.000000 m /period glyphshow
37.582031 0.000000 m /eight glyphshow
grestore
gsave
/o {
gsave
newpath
translate
0.8 setlinewidth
1 setlinejoin
0 setlinecap
0 0 m
-3.5 0 l

gsave
0.000 setgray
fill
grestore
stroke
grestore
} bind def
180 608.989 o
grestore
gsave
110.375000 595.309392 translate
0.000000 rotate
0.000000 0.000000 m /one glyphshow
25.048828 0.000000 m /period glyphshow
37.582031 0.000000 m /zero glyphshow
grestore
/DejaVuSerif findfont
38.000 scalefont
setfont
gsave
98.468750 316.642188 translate
90.000000 rotate
0.000000 0.000000 m /T glyphshow
25.345703 0.000000 m /P glyphshow
50.914062 0.000000 m /R glyphshow
grestore
4.000 setlinewidth
2 setlinecap
0.855 0.647 0.125 setrgbcolor
gsave
1116 554.4 180 79.2 clipbox
230.727273 106.083086 m
484.363636 365.109968 l
738 488.564301 l
991.636364 564.219002 l
1245.272727 586.856504 l
stroke
grestore
1.000 setlinewidth
0 setlinecap
gsave
1116 554.4 180 79.2 clipbox
/o {
gsave
newpath
translate
1.0 setlinewidth
1 setlinejoin
0 setlinecap
-6 0 m
6 0 l
0 -6 m
0 6 l

gsave
0.855 0.647 0.125 setrgbcolor
fill
grestore
stroke
grestore
} bind def
230.727 106.083 o
484.364 365.11 o
738 488.564 o
991.636 564.219 o
1245.27 586.857 o
grestore
4.000 setlinewidth
2 setlinecap
0.604 0.804 0.196 setrgbcolor
gsave
1116 554.4 180 79.2 clipbox
230.727273 268.416697 m
484.363636 401.380464 l
738 486.797061 l
991.636364 537.542094 l
1245.272727 566.827784 l
stroke
grestore
1.000 setlinewidth
0 setlinecap
gsave
1116 554.4 180 79.2 clipbox
/o {
gsave
newpath
translate
1.0 setlinewidth
1 setlinejoin
0 setlinecap
0 -6 m
1.591219 -6 3.117479 -5.367802 4.242641 -4.242641 c
5.367802 -3.117479 6 -1.591219 6 0 c
6 1.591219 5.367802 3.117479 4.242641 4.242641 c
3.117479 5.367802 1.591219 6 0 6 c
-1.591219 6 -3.117479 5.367802 -4.242641 4.242641 c
-5.367802 3.117479 -6 1.591219 -6 0 c
-6 -1.591219 -5.367802 -3.117479 -4.242641 -4.242641 c
-3.117479 -5.367802 -1.591219 -6 0 -6 c
cl

gsave
0.604 0.804 0.196 setrgbcolor
fill
grestore
stroke
grestore
} bind def
230.727 268.417 o
484.364 401.38 o
738 486.797 o
991.636 537.542 o
1245.27 566.828 o
grestore
4.000 setlinewidth
[25.6 6.4 4 6.4] 0 setdash
0.000 0.502 0.000 setrgbcolor
gsave
1116 554.4 180 79.2 clipbox
230.727273 104.4 m
484.363636 437.06188 l
738 552.437402 l
991.636364 601.415195 l
1245.272727 608.4 l
stroke
grestore
1.000 setlinewidth
2 setlinejoin
[] 0 setdash
gsave
1116 554.4 180 79.2 clipbox
/o {
gsave
newpath
translate
1.0 setlinewidth
2 setlinejoin
0 setlinecap
0 6 m
-1.347084 1.854102 l
-5.706339 1.854102 l
-2.179628 -0.708204 l
-3.526712 -4.854102 l
-0 -2.291796 l
3.526712 -4.854102 l
2.179628 -0.708204 l
5.706339 1.854102 l
1.347084 1.854102 l
cl

gsave
0.000 0.502 0.000 setrgbcolor
fill
grestore
stroke
grestore
} bind def
230.727 104.4 o
484.364 437.062 o
738 552.437 o
991.636 601.415 o
1245.27 608.4 o
grestore
4.000 setlinewidth
1 setlinejoin
[25.6 6.4 4 6.4] 0 setdash
0.678 0.847 0.902 setrgbcolor
gsave
1116 554.4 180 79.2 clipbox
230.727273 141.848656 m
484.363636 463.907096 l
738 560.432059 l
991.636364 603.855669 l
1245.272727 607.390149 l
stroke
grestore
gsave
1116 554.4 180 79.2 clipbox
/o {
gsave
newpath
translate
-0.49999 -0.49999 m
0.50001 -0.49999 l
0.50001 0.50001 l
-0.49999 0.50001 l
cl

0.678 0.847 0.902 setrgbcolor
fill
grestore
} bind def
230.727 141.849 o
484.364 463.907 o
738 560.432 o
991.636 603.856 o
1245.27 607.39 o
grestore
[14.8 6.4] 0 setdash
0.000 0.000 0.545 setrgbcolor
gsave
1116 554.4 180 79.2 clipbox
230.727273 169.956186 m
484.363636 472.743296 l
738 546.546602 l
991.636364 598.133177 l
1245.272727 605.033829 l
stroke
grestore
1.000 setlinewidth
0 setlinejoin
[] 0 setdash
gsave
1116 554.4 180 79.2 clipbox
/o {
gsave
newpath
translate
1.0 setlinewidth
0 setlinejoin
0 setlinecap
0 6 m
-6 -6 l
6 -6 l
cl

gsave
0.000 0.000 0.545 setrgbcolor
fill
grestore
stroke
grestore
} bind def
230.727 169.956 o
484.364 472.743 o
738 546.547 o
991.636 598.133 o
1245.27 605.034 o
grestore
4.000 setlinewidth
1 setlinejoin
[14.8 6.4] 0 setdash
1.000 0.000 0.000 setrgbcolor
gsave
1116 554.4 180 79.2 clipbox
230.727273 372.010619 m
484.363636 558.580665 l
738 590.390983 l
991.636364 600.237035 l
1245.272727 600.573652 l
stroke
grestore
1.000 setlinewidth
0 setlinejoin
[] 0 setdash
gsave
1116 554.4 180 79.2 clipbox
/o {
gsave
newpath
translate
1.0 setlinewidth
0 setlinejoin
0 setlinecap
0 6 m
-6 -6 l
6 -6 l
cl

gsave
1.000 0.000 0.000 setrgbcolor
fill
grestore
stroke
grestore
} bind def
230.727 372.011 o
484.364 558.581 o
738 590.391 o
991.636 600.237 o
1245.27 600.574 o
grestore
0.800 setlinewidth
2 setlinecap
[] 0 setdash
0.000 setgray
gsave
180 79.2 m
180 633.6 l
stroke
grestore
gsave
1296 79.2 m
1296 633.6 l
stroke
grestore
gsave
180 79.2 m
1296 79.2 l
stroke
grestore
gsave
180 633.6 m
1296 633.6 l
stroke
grestore
gsave
576.164062 639.600000 translate
0.000000 rotate
0.000000 0.000000 m /S glyphshow
26.032227 0.000000 m /e glyphshow
48.520508 0.000000 m /n glyphshow
72.994141 0.000000 m /s glyphshow
92.495117 0.000000 m /i glyphshow
104.648438 0.000000 m /t glyphshow
119.918945 0.000000 m /i glyphshow
132.072266 0.000000 m /v glyphshow
153.540039 0.000000 m /i glyphshow
165.693359 0.000000 m /t glyphshow
180.963867 0.000000 m /y glyphshow
202.431641 0.000000 m /space glyphshow
214.510742 0.000000 m /parenleft glyphshow
229.335938 0.000000 m /T glyphshow
254.681641 0.000000 m /P glyphshow
280.250000 0.000000 m /R glyphshow
308.861328 0.000000 m /parenright glyphshow
grestore
1.000 setlinewidth
0 setlinecap
0.800 setgray
gsave
1094.64625 79.2 m
1290.72 79.2 l
1294.24 79.2 1296 80.96 1296 84.48 c
1296 311.9775 l
1296 315.4975 1294.24 317.2575 1290.72 317.2575 c
1094.64625 317.2575 l
1091.12625 317.2575 1089.36625 315.4975 1089.36625 311.9775 c
1089.36625 84.48 l
1089.36625 80.96 1091.12625 79.2 1094.64625 79.2 c
cl
gsave
1.000 setgray
fill
grestore
stroke
grestore
4.000 setlinewidth
1 setlinejoin
2 setlinecap
[] 0 setdash
0.855 0.647 0.125 setrgbcolor
gsave
1099.92625 296.1875 m
1152.72625 296.1875 l
stroke
grestore
1.000 setlinewidth
0 setlinecap
gsave
/o {
gsave
newpath
translate
1.0 setlinewidth
1 setlinejoin
0 setlinecap
-6 0 m
6 0 l
0 -6 m
0 6 l

gsave
0.855 0.647 0.125 setrgbcolor
fill
grestore
stroke
grestore
} bind def
1126.33 296.188 o
grestore
0.000 setgray
/DejaVuSerif-Bold findfont
26.400 scalefont
setfont
gsave
1173.846250 286.947500 translate
0.000000 rotate
0.000000 0.000000 m /L glyphshow
18.544922 0.000000 m /R glyphshow
grestore
4.000 setlinewidth
2 setlinecap
0.604 0.804 0.196 setrgbcolor
gsave
1099.92625 257.83125 m
1152.72625 257.83125 l
stroke
grestore
1.000 setlinewidth
0 setlinecap
gsave
/o {
gsave
newpath
translate
1.0 setlinewidth
1 setlinejoin
0 setlinecap
0 -6 m
1.591219 -6 3.117479 -5.367802 4.242641 -4.242641 c
5.367802 -3.117479 6 -1.591219 6 0 c
6 1.591219 5.367802 3.117479 4.242641 4.242641 c
3.117479 5.367802 1.591219 6 0 6 c
-1.591219 6 -3.117479 5.367802 -4.242641 4.242641 c
-5.367802 3.117479 -6 1.591219 -6 0 c
-6 -1.591219 -5.367802 -3.117479 -4.242641 -4.242641 c
-3.117479 -5.367802 -1.591219 -6 0 -6 c
cl

gsave
0.604 0.804 0.196 setrgbcolor
fill
grestore
stroke
grestore
} bind def
1126.33 257.831 o
grestore
0.000 setgray
gsave
1173.846250 248.591250 translate
0.000000 rotate
0.000000 0.000000 m /D glyphshow
22.872070 0.000000 m /T glyphshow
grestore
4.000 setlinewidth
[25.6 6.4 4 6.4] 0 setdash
0.000 0.502 0.000 setrgbcolor
gsave
1099.92625 219.475 m
1152.72625 219.475 l
stroke
grestore
1.000 setlinewidth
2 setlinejoin
[] 0 setdash
gsave
/o {
gsave
newpath
translate
1.0 setlinewidth
2 setlinejoin
0 setlinecap
0 6 m
-1.347084 1.854102 l
-5.706339 1.854102 l
-2.179628 -0.708204 l
-3.526712 -4.854102 l
-0 -2.291796 l
3.526712 -4.854102 l
2.179628 -0.708204 l
5.706339 1.854102 l
1.347084 1.854102 l
cl

gsave
0.000 0.502 0.000 setrgbcolor
fill
grestore
stroke
grestore
} bind def
1126.33 219.475 o
grestore
0.000 setgray
gsave
1173.846250 210.235000 translate
0.000000 rotate
0.000000 0.000000 m /S glyphshow
19.047180 0.000000 m /V glyphshow
39.510986 0.000000 m /M glyphshow
grestore
4.000 setlinewidth
1 setlinejoin
[25.6 6.4 4 6.4] 0 setdash
0.678 0.847 0.902 setrgbcolor
gsave
1099.92625 181.11875 m
1152.72625 181.11875 l
stroke
grestore
gsave
/o {
gsave
newpath
translate
-0.49999 -0.49999 m
0.50001 -0.49999 l
0.50001 0.50001 l
-0.49999 0.50001 l
cl

0.678 0.847 0.902 setrgbcolor
fill
grestore
} bind def
1126.33 181.119 o
grestore
0.000 setgray
gsave
1173.846250 171.878750 translate
0.000000 rotate
0.000000 0.000000 m /N glyphshow
24.108398 0.000000 m /B glyphshow
grestore
[14.8 6.4] 0 setdash
0.000 0.000 0.545 setrgbcolor
gsave
1099.92625 142.7625 m
1152.72625 142.7625 l
stroke
grestore
1.000 setlinewidth
0 setlinejoin
[] 0 setdash
gsave
/o {
gsave
newpath
translate
1.0 setlinewidth
0 setlinejoin
0 setlinecap
0 6 m
-6 -6 l
6 -6 l
cl

gsave
0.000 0.000 0.545 setrgbcolor
fill
grestore
stroke
grestore
} bind def
1126.33 142.762 o
grestore
0.000 setgray
gsave
1173.846250 133.522500 translate
0.000000 rotate
0.000000 0.000000 m /G glyphshow
22.524353 0.000000 m /B glyphshow
grestore
4.000 setlinewidth
1 setlinejoin
[14.8 6.4] 0 setdash
1.000 0.000 0.000 setrgbcolor
gsave
1099.92625 104.40625 m
1152.72625 104.40625 l
stroke
grestore
1.000 setlinewidth
0 setlinejoin
[] 0 setdash
gsave
/o {
gsave
newpath
translate
1.0 setlinewidth
0 setlinejoin
0 setlinecap
0 6 m
-6 -6 l
6 -6 l
cl

gsave
1.000 0.000 0.000 setrgbcolor
fill
grestore
stroke
grestore
} bind def
1126.33 104.406 o
grestore
0.000 setgray
gsave
1173.846250 95.166250 translate
0.000000 rotate
0.000000 0.000000 m /M glyphshow
29.195374 0.000000 m /L glyphshow
47.740295 0.000000 m /R glyphshow
69.659363 0.000000 m /D glyphshow
92.531433 0.000000 m /S glyphshow
grestore

end
showpage
