%!PS-Adobe-3.0 EPSF-3.0
%%Title: figures/value_distribution.eps
%%Creator: matplotlib version 2.1.0, http://matplotlib.org/
%%CreationDate: Tue Jul 17 04:26:49 2018
%%Orientation: portrait
%%BoundingBox: -414 36 1026 756
%%EndComments
%%BeginProlog
/mpldict 9 dict def
mpldict begin
/m { moveto } bind def
/l { lineto } bind def
/r { rlineto } bind def
/c { curveto } bind def
/cl { closepath } bind def
/box {
m
1 index 0 r
0 exch r
neg 0 r
cl
} bind def
/clipbox {
box
clip
newpath
} bind def
%!PS-Adobe-3.0 Resource-Font
%%Title: DejaVu Serif
%%Copyright: Copyright (c) 2003 by Bitstream, Inc. All Rights Reserved. DejaVu changes are in public domain 
%%Creator: Converted from TrueType to type 3 by PPR
25 dict begin
/_d{bind def}bind def
/_m{moveto}_d
/_l{lineto}_d
/_cl{closepath eofill}_d
/_c{curveto}_d
/_sc{7 -1 roll{setcachedevice}{pop pop pop pop pop pop}ifelse}_d
/_e{exec}_d
/FontName /DejaVuSerif def
/PaintType 0 def
/FontMatrix[.001 0 0 .001 0 0]def
/FontBBox[-770 -347 2105 1109]def
/FontType 3 def
/Encoding [ /space /P /V /a /b /c /d /e /g /i /l /n /o /r /s /t /u ] def
/FontInfo 10 dict dup begin
/FamilyName (DejaVu Serif) def
/FullName (DejaVu Serif) def
/Notice (Copyright (c) 2003 by Bitstream, Inc. All Rights Reserved. DejaVu changes are in public domain ) def
/Weight (Book) def
/Version (Version 2.35) def
/ItalicAngle 0.0 def
/isFixedPitch false def
/UnderlinePosition -130 def
/UnderlineThickness 90 def
end readonly def
/CharStrings 18 dict dup begin
/.notdef 0 def
/space{318 0 0 0 0 0 _sc
}_d
/P{{673 0 55 0 637 729 _sc
247 371 _m
376 371 _l
424 371 461 384 487 410 _c
512 436 525 474 525 524 _c
525 574 512 612 487 638 _c
461 664 424 677 376 677 _c
247 677 _l
247 371 _l
55 0 _m
55 52 _l
148 52 _l
148 677 _l
55 677 _l
55 729 _l
400 729 _l
472 729 530 710 573 673 _c
615 636 637 586 637 524 _c
637 461 615 411 573 374 _c
530 337 472 319 400 319 _c
247 319 _l
}_e{247 52 _l
360 52 _l
360 0 _l
55 0 _l
_cl}_e}_d
/V{722 0 -9 0 737 729 _sc
175 677 _m
390 117 _l
605 677 _l
523 677 _l
523 729 _l
737 729 _l
737 677 _l
666 677 _l
406 0 _l
322 0 _l
63 677 _l
-9 677 _l
-9 729 _l
256 729 _l
256 677 _l
175 677 _l
_cl}_d
/a{{596 0 50 -13 568 533 _sc
398 163 _m
398 273 _l
282 273 _l
237 273 204 263 182 244 _c
160 224 150 195 150 156 _c
150 120 161 91 183 70 _c
205 48 235 38 273 38 _c
310 38 340 49 363 72 _c
386 95 398 125 398 163 _c
488 324 _m
488 52 _l
568 52 _l
568 0 _l
398 0 _l
398 56 _l
378 32 355 14 329 3 _c
303 -7 272 -13 238 -13 _c
180 -13 134 2 100 32 _c
}_e{66 62 50 104 50 156 _c
50 209 69 250 108 280 _c
146 310 201 325 272 325 _c
398 325 _l
398 361 _l
398 400 386 430 362 452 _c
338 474 304 485 261 485 _c
225 485 197 476 176 460 _c
154 444 141 420 136 388 _c
90 388 _l
90 493 _l
121 506 151 516 181 523 _c
210 529 239 533 267 533 _c
339 533 393 515 431 479 _c
469 443 488 392 488 324 _c
_cl}_e}_d
/b{{640 0 29 -13 590 760 _sc
115 52 _m
115 708 _l
29 708 _l
29 760 _l
205 760 _l
205 438 _l
222 470 244 494 272 510 _c
299 525 333 533 373 533 _c
437 533 489 507 529 457 _c
569 407 590 341 590 260 _c
590 178 569 112 529 62 _c
489 12 437 -13 373 -13 _c
333 -13 299 -5 272 9 _c
244 24 222 48 205 81 _c
205 0 _l
29 0 _l
29 52 _l
115 52 _l
205 234 _m
}_e{205 171 217 123 241 91 _c
265 58 299 42 345 42 _c
391 42 425 60 449 97 _c
473 133 485 188 485 260 _c
485 332 473 386 449 422 _c
425 458 391 477 345 477 _c
299 477 265 460 241 427 _c
217 394 205 347 205 285 _c
205 234 _l
_cl}_e}_d
/c{{560 0 50 -13 514 533 _sc
514 156 _m
501 100 477 58 441 30 _c
405 1 358 -13 301 -13 _c
225 -13 165 11 119 61 _c
73 111 50 177 50 260 _c
50 342 73 408 119 458 _c
165 508 225 533 301 533 _c
333 533 366 529 399 521 _c
431 513 464 502 497 487 _c
497 354 _l
445 354 _l
438 399 423 432 400 453 _c
377 474 344 485 302 485 _c
253 485 216 466 192 428 _c
}_e{167 390 155 334 155 260 _c
155 184 167 128 192 90 _c
216 52 253 34 302 34 _c
340 34 371 44 394 64 _c
417 84 433 115 442 156 _c
514 156 _l
_cl}_e}_d
/d{{640 0 50 -13 611 760 _sc
525 52 _m
611 52 _l
611 0 _l
435 0 _l
435 81 _l
417 48 395 24 368 9 _c
340 -5 307 -13 267 -13 _c
203 -13 150 12 110 62 _c
70 112 50 178 50 260 _c
50 341 70 407 110 457 _c
150 507 203 533 267 533 _c
307 533 340 525 368 510 _c
395 494 417 470 435 438 _c
435 708 _l
350 708 _l
350 760 _l
525 760 _l
525 52 _l
435 234 _m
435 285 _l
}_e{435 347 423 394 399 427 _c
375 460 340 477 295 477 _c
249 477 214 458 190 422 _c
166 386 155 332 155 260 _c
155 188 166 133 190 97 _c
214 60 249 42 295 42 _c
340 42 375 58 399 91 _c
423 123 435 171 435 234 _c
_cl}_e}_d
/e{{592 0 50 -13 542 533 _sc
542 250 _m
155 250 _l
155 246 _l
155 176 168 123 194 87 _c
220 51 259 34 311 34 _c
350 34 382 44 408 65 _c
433 85 451 116 461 157 _c
533 157 _l
519 100 492 57 454 29 _c
415 1 364 -13 302 -13 _c
226 -13 165 11 119 61 _c
73 111 50 177 50 260 _c
50 342 72 408 118 458 _c
163 508 222 533 296 533 _c
374 533 435 508 477 460 _c
}_e{519 412 540 342 542 250 _c
436 302 _m
434 362 421 408 397 439 _c
373 469 340 485 296 485 _c
254 485 222 469 198 438 _c
174 407 160 362 155 302 _c
436 302 _l
_cl}_e}_d
/g{{640 0 50 -221 611 533 _sc
525 467 _m
525 11 _l
525 -63 504 -120 463 -160 _c
422 -200 364 -221 288 -221 _c
254 -221 221 -218 190 -212 _c
158 -206 128 -196 100 -184 _c
100 -75 _l
147 -75 _l
153 -109 166 -133 188 -149 _c
210 -165 241 -173 282 -173 _c
334 -173 373 -158 398 -128 _c
422 -98 435 -51 435 11 _c
435 81 _l
417 48 395 24 368 9 _c
340 -5 307 -13 267 -13 _c
203 -13 150 12 110 62 _c
}_e{70 112 50 178 50 260 _c
50 341 70 407 110 457 _c
150 507 203 533 267 533 _c
307 533 340 525 368 510 _c
395 494 417 470 435 438 _c
435 519 _l
611 519 _l
611 467 _l
525 467 _l
435 285 _m
435 347 423 394 399 427 _c
375 460 340 477 295 477 _c
249 477 214 458 190 422 _c
166 386 155 332 155 260 _c
155 188 166 133 190 97 _c
214 60 249 42 295 42 _c
}_e{340 42 375 58 399 91 _c
423 123 435 171 435 234 _c
435 285 _l
_cl}_e}_d
/i{320 0 36 0 297 736 _sc
97 680 _m
97 695 102 708 113 719 _c
124 730 137 736 153 736 _c
167 736 180 730 191 719 _c
202 708 208 695 208 680 _c
208 664 202 651 192 641 _c
181 630 168 625 153 625 _c
137 625 124 630 113 641 _c
102 651 97 664 97 680 _c
212 52 _m
297 52 _l
297 0 _l
36 0 _l
36 52 _l
122 52 _l
122 467 _l
36 467 _l
36 519 _l
212 519 _l
212 52 _l
_cl}_d
/l{320 0 29 0 290 760 _sc
205 52 _m
290 52 _l
290 0 _l
29 0 _l
29 52 _l
115 52 _l
115 708 _l
29 708 _l
29 760 _l
205 760 _l
205 52 _l
_cl}_d
/n{{644 0 36 0 616 533 _sc
41 0 _m
41 52 _l
122 52 _l
122 467 _l
36 467 _l
36 519 _l
212 519 _l
212 427 _l
228 461 250 488 276 506 _c
302 524 333 533 369 533 _c
426 533 468 516 495 484 _c
522 451 536 400 536 330 _c
536 52 _l
616 52 _l
616 0 _l
368 0 _l
368 52 _l
446 52 _l
446 302 _l
446 365 438 408 422 432 _c
406 456 379 468 340 468 _c
}_e{298 468 266 452 244 422 _c
222 391 212 347 212 289 _c
212 52 _l
290 52 _l
290 0 _l
41 0 _l
_cl}_e}_d
/o{602 0 50 -13 552 533 _sc
301 34 _m
349 34 385 53 410 91 _c
434 129 447 185 447 260 _c
447 334 434 390 410 428 _c
385 466 349 485 301 485 _c
253 485 216 466 192 428 _c
167 390 155 334 155 260 _c
155 185 167 129 192 91 _c
216 53 253 34 301 34 _c
301 -13 _m
225 -13 165 11 119 61 _c
73 111 50 177 50 260 _c
50 342 72 408 118 458 _c
164 508 225 533 301 533 _c
377 533 437 508 483 458 _c
529 408 552 342 552 260 _c
552 177 529 111 483 61 _c
437 11 377 -13 301 -13 _c
_cl}_d
/r{478 0 36 0 478 533 _sc
478 520 _m
478 390 _l
426 390 _l
424 416 417 435 405 448 _c
392 460 373 467 349 467 _c
305 467 271 451 247 421 _c
223 390 212 346 212 289 _c
212 52 _l
316 52 _l
316 0 _l
41 0 _l
41 52 _l
122 52 _l
122 468 _l
36 468 _l
36 519 _l
212 519 _l
212 427 _l
229 463 251 489 279 507 _c
307 524 341 533 381 533 _c
395 533 411 531 427 529 _c
443 527 460 524 478 520 _c
_cl}_d
/s{{513 0 56 -13 462 533 _sc
56 29 _m
56 150 _l
108 150 _l
109 111 121 82 144 63 _c
167 43 201 34 246 34 _c
286 34 317 41 338 57 _c
359 72 370 94 370 123 _c
370 145 362 164 347 178 _c
331 192 299 207 249 223 _c
184 245 _l
139 259 107 277 87 299 _c
67 320 57 347 57 381 _c
57 428 74 465 109 492 _c
144 519 192 533 254 533 _c
281 533 310 529 340 522 _c
}_e{370 515 402 505 434 491 _c
434 378 _l
382 378 _l
380 411 369 437 347 456 _c
325 475 295 485 257 485 _c
219 485 190 478 171 465 _c
151 451 142 431 142 405 _c
142 383 149 365 164 352 _c
178 339 208 326 252 312 _c
323 290 _l
372 274 407 255 429 232 _c
451 209 462 180 462 144 _c
462 94 443 56 405 28 _c
367 0 316 -13 250 -13 _c
216 -13 184 -9 152 -3 _c
}_e{120 3 88 14 56 29 _c
_cl}_e}_d
/t{402 0 29 -13 394 680 _sc
108 467 _m
29 467 _l
29 519 _l
108 519 _l
108 680 _l
198 680 _l
198 519 _l
367 519 _l
367 467 _l
198 467 _l
198 137 _l
198 93 202 64 211 52 _c
219 40 235 34 258 34 _c
281 34 298 41 309 55 _c
319 69 325 91 326 122 _c
394 122 _l
391 74 378 40 355 19 _c
332 -2 297 -13 250 -13 _c
198 -13 161 -1 140 21 _c
118 43 108 82 108 137 _c
108 467 _l
_cl}_d
/u{{644 0 27 -13 607 519 _sc
354 519 _m
522 519 _l
522 52 _l
607 52 _l
607 0 _l
432 0 _l
432 92 _l
415 57 393 31 367 13 _c
341 -4 310 -13 276 -13 _c
218 -13 175 3 148 35 _c
121 67 108 119 108 189 _c
108 467 _l
27 467 _l
27 519 _l
198 519 _l
198 217 _l
198 153 205 110 221 87 _c
237 63 264 52 304 52 _c
346 52 377 67 399 98 _c
421 128 432 173 432 231 _c
}_e{432 467 _l
354 467 _l
354 519 _l
_cl}_e}_d
end readonly def

/BuildGlyph
 {exch begin
 CharStrings exch
 2 copy known not{pop /.notdef}if
 true 3 1 roll get exec
 end}_d

/BuildChar {
 1 index /Encoding get exch get
 1 index /BuildGlyph get exec
}_d

FontName currentdict end definefont pop
%!PS-Adobe-3.0 Resource-Font
%%Title: DejaVu Serif Bold
%%Copyright: Copyright (c) 2003 by Bitstream, Inc. All Rights Reserved. DejaVu changes are in public domain 
%%Creator: Converted from TrueType to type 3 by PPR
25 dict begin
/_d{bind def}bind def
/_m{moveto}_d
/_l{lineto}_d
/_cl{closepath eofill}_d
/_c{curveto}_d
/_sc{7 -1 roll{setcachedevice}{pop pop pop pop pop pop}ifelse}_d
/_e{exec}_d
/FontName /DejaVuSerif-Bold def
/PaintType 0 def
/FontMatrix[.001 0 0 .001 0 0]def
/FontBBox[-836 -389 1796 1145]def
/FontType 3 def
/Encoding [ /period /zero /one /two /three /four /five /N /P /a /e /g /i /o /s /t /v ] def
/FontInfo 10 dict dup begin
/FamilyName (DejaVu Serif) def
/FullName (DejaVu Serif Bold) def
/Notice (Copyright (c) 2003 by Bitstream, Inc. All Rights Reserved. DejaVu changes are in public domain ) def
/Weight (Bold) def
/Version (Version 2.35) def
/ItalicAngle 0.0 def
/isFixedPitch false def
/UnderlinePosition -130 def
/UnderlineThickness 90 def
end readonly def
/CharStrings 18 dict dup begin
/.notdef 0 def
/period{348 0 81 -13 267 172 _sc
81 79 _m
81 104 90 126 108 144 _c
126 162 148 172 174 172 _c
199 172 221 162 239 144 _c
257 126 267 104 267 79 _c
267 53 257 32 239 14 _c
221 -4 199 -13 174 -13 _c
148 -13 126 -4 108 14 _c
90 32 81 53 81 79 _c
_cl}_d
/zero{696 0 47 -13 649 742 _sc
348 43 _m
387 43 414 60 428 96 _c
442 131 450 220 450 364 _c
450 506 442 595 428 631 _c
414 667 387 685 348 685 _c
309 685 282 667 268 632 _c
253 596 246 507 246 364 _c
246 220 253 131 268 96 _c
282 60 309 43 348 43 _c
348 -13 _m
250 -13 176 19 124 84 _c
72 148 47 242 47 364 _c
47 486 72 579 124 644 _c
176 709 250 742 348 742 _c
445 742 519 709 571 644 _c
623 579 649 486 649 364 _c
649 242 623 148 571 84 _c
519 19 445 -13 348 -13 _c
_cl}_d
/one{696 0 122 0 596 742 _sc
137 0 _m
137 59 _l
274 59 _l
274 649 _l
122 559 _l
122 632 _l
305 742 _l
459 742 _l
459 59 _l
596 59 _l
596 0 _l
137 0 _l
_cl}_d
/two{{696 0 67 0 606 742 _sc
132 549 _m
73 549 _l
73 706 _l
113 718 152 727 191 733 _c
230 739 269 742 309 742 _c
401 742 474 723 526 685 _c
578 647 604 594 604 527 _c
604 479 589 435 561 397 _c
532 359 477 313 397 261 _c
194 128 _l
539 128 _l
539 214 _l
606 214 _l
606 0 _l
67 0 _l
67 119 _l
175 194 _l
267 257 328 311 359 356 _c
389 400 405 452 405 512 _c
}_e{405 568 393 611 370 641 _c
346 670 312 685 268 685 _c
229 685 198 673 175 650 _c
152 626 138 593 132 549 _c
_cl}_e}_d
/three{{696 0 70 -13 632 742 _sc
86 708 _m
128 719 170 727 210 733 _c
250 739 290 742 329 742 _c
417 742 484 726 531 695 _c
578 663 602 618 602 560 _c
602 516 588 480 561 453 _c
534 425 495 407 443 398 _c
506 388 553 366 585 333 _c
616 299 632 254 632 197 _c
632 129 605 77 551 41 _c
497 5 419 -13 317 -13 _c
278 -13 238 -10 198 -4 _c
157 2 114 11 70 25 _c
70 185 _l
}_e{129 185 _l
132 139 146 103 172 79 _c
197 55 232 43 278 43 _c
327 43 365 56 392 84 _c
419 111 433 150 433 201 _c
433 253 419 294 391 323 _c
363 351 323 366 271 366 _c
239 366 _l
239 425 _l
264 425 _l
312 425 348 436 372 458 _c
396 480 408 513 408 557 _c
408 598 396 630 374 652 _c
351 674 319 685 277 685 _c
238 685 207 674 185 653 _c
163 632 149 602 145 562 _c
}_e{86 562 _l
86 708 _l
_cl}_e}_d
/four{696 0 41 0 655 742 _sc
638 0 _m
237 0 _l
237 59 _l
345 59 _l
345 192 _l
41 192 _l
41 248 _l
346 742 _l
530 742 _l
530 255 _l
655 255 _l
655 192 _l
530 192 _l
530 59 _l
638 59 _l
638 0 _l
345 255 _m
345 609 _l
128 255 _l
345 255 _l
_cl}_d
/five{{696 0 82 -13 620 729 _sc
564 729 _m
564 601 _l
174 601 _l
174 441 _l
195 457 219 470 245 478 _c
271 486 299 491 329 491 _c
419 491 490 468 542 423 _c
594 377 620 316 620 238 _c
620 158 594 97 542 53 _c
490 9 417 -13 323 -13 _c
283 -13 244 -10 205 -4 _c
165 2 124 12 82 26 _c
82 185 _l
141 185 _l
143 137 155 101 178 78 _c
200 54 234 43 280 43 _c
}_e{328 43 363 59 386 91 _c
409 123 421 172 421 238 _c
421 302 409 351 387 383 _c
364 415 330 431 284 431 _c
259 431 237 425 218 415 _c
198 405 180 389 164 368 _c
115 368 _l
115 729 _l
564 729 _l
_cl}_e}_d
/N{914 0 44 0 874 729 _sc
44 0 _m
44 59 _l
137 59 _l
137 670 _l
44 670 _l
44 729 _l
272 729 _l
712 213 _l
712 670 _l
619 670 _l
619 729 _l
874 729 _l
874 670 _l
781 670 _l
781 0 _l
653 0 _l
206 527 _l
206 59 _l
299 59 _l
299 0 _l
44 0 _l
_cl}_d
/P{{752 0 47 0 727 729 _sc
47 0 _m
47 59 _l
140 59 _l
140 670 _l
47 670 _l
47 729 _l
462 729 _l
542 729 607 709 655 671 _c
703 632 727 580 727 516 _c
727 450 703 398 655 360 _c
607 321 542 302 462 302 _c
328 302 _l
328 59 _l
446 59 _l
446 0 _l
47 0 _l
328 361 _m
383 361 _l
425 361 458 375 484 403 _c
509 431 522 468 522 516 _c
522 562 509 600 484 628 _c
}_e{459 656 425 670 383 670 _c
328 670 _l
328 361 _l
_cl}_e}_d
/a{{648 0 41 -13 625 533 _sc
551 319 _m
551 59 _l
625 59 _l
625 0 _l
378 0 _l
378 66 _l
355 38 330 18 302 6 _c
274 -6 242 -13 206 -13 _c
152 -13 111 1 83 29 _c
55 57 41 97 41 151 _c
41 209 61 252 102 281 _c
143 310 205 325 287 325 _c
378 325 _l
378 356 _l
378 398 368 429 348 449 _c
328 469 297 479 256 479 _c
221 479 194 472 176 458 _c
}_e{157 444 144 420 136 388 _c
81 388 _l
81 500 _l
111 511 143 519 177 525 _c
210 530 245 533 282 533 _c
374 533 442 515 486 481 _c
529 447 551 393 551 319 _c
378 163 _m
378 267 _l
313 267 _l
281 267 256 258 239 240 _c
221 222 213 197 213 165 _c
213 132 219 107 231 91 _c
243 75 263 67 289 67 _c
315 67 337 75 353 93 _c
369 111 378 134 378 163 _c
_cl}_e}_d
/e{{636 0 41 -13 591 533 _sc
401 293 _m
401 361 394 409 382 437 _c
369 464 347 478 317 478 _c
287 478 265 464 253 437 _c
240 410 234 365 234 302 _c
234 293 _l
401 293 _l
591 235 _m
234 235 _l
234 231 _l
234 163 244 115 264 85 _c
284 55 316 41 362 41 _c
399 41 429 51 452 71 _c
475 91 490 119 497 157 _c
578 157 _l
564 98 536 55 494 28 _c
452 0 394 -13 320 -13 _c
}_e{230 -13 161 10 113 57 _c
65 104 41 172 41 260 _c
41 346 65 413 114 461 _c
163 509 232 533 320 533 _c
406 533 471 507 517 457 _c
563 406 587 332 591 235 _c
_cl}_e}_d
/g{{699 0 41 -221 676 533 _sc
602 460 _m
602 7 _l
602 -65 576 -121 524 -161 _c
472 -201 398 -221 304 -221 _c
269 -221 234 -218 199 -213 _c
163 -207 127 -199 90 -189 _c
90 -65 _l
145 -65 _l
149 -99 163 -124 186 -141 _c
208 -157 241 -166 283 -166 _c
336 -166 374 -153 396 -127 _c
418 -101 429 -57 429 7 _c
429 66 _l
414 38 394 18 370 6 _c
345 -6 314 -13 278 -13 _c
204 -13 146 11 104 59 _c
}_e{62 107 41 174 41 260 _c
41 345 62 412 104 460 _c
146 508 204 533 278 533 _c
314 533 345 526 370 513 _c
394 500 414 480 429 453 _c
429 519 _l
676 519 _l
676 460 _l
602 460 _l
429 285 _m
429 345 421 389 405 416 _c
389 443 365 457 331 457 _c
295 457 269 442 255 414 _c
241 386 234 334 234 260 _c
234 185 241 133 256 105 _c
270 76 295 62 331 62 _c
}_e{365 62 389 75 405 102 _c
421 129 429 173 429 234 _c
429 285 _l
_cl}_e}_d
/i{380 0 34 0 355 760 _sc
92 666 _m
92 692 101 715 119 733 _c
137 751 159 760 186 760 _c
212 760 234 751 252 733 _c
270 715 279 692 279 666 _c
279 640 270 618 252 600 _c
234 582 212 573 186 573 _c
159 573 137 582 119 600 _c
101 618 92 640 92 666 _c
281 59 _m
355 59 _l
355 0 _l
34 0 _l
34 59 _l
108 59 _l
108 460 _l
34 460 _l
34 519 _l
281 519 _l
281 59 _l
_cl}_d
/o{667 0 41 -13 627 533 _sc
334 41 _m
370 41 396 56 411 88 _c
425 119 433 176 433 260 _c
433 343 425 400 411 431 _c
396 462 370 478 334 478 _c
297 478 271 462 256 431 _c
241 399 234 342 234 260 _c
234 177 241 120 256 88 _c
271 56 297 41 334 41 _c
334 -13 _m
242 -13 171 11 119 59 _c
67 107 41 174 41 260 _c
41 345 67 412 119 460 _c
171 508 242 533 334 533 _c
426 533 497 508 549 460 _c
601 412 627 345 627 260 _c
627 174 601 107 549 59 _c
497 11 425 -13 334 -13 _c
_cl}_d
/s{{563 0 43 -13 522 533 _sc
47 15 _m
47 160 _l
102 160 _l
106 121 121 91 145 71 _c
169 51 203 41 245 41 _c
280 41 307 47 326 59 _c
344 71 354 89 354 112 _c
354 132 348 148 336 160 _c
324 171 301 181 267 190 _c
196 208 _l
142 221 103 240 79 265 _c
55 290 43 324 43 366 _c
43 422 62 464 101 492 _c
140 519 200 533 282 533 _c
312 533 345 530 380 525 _c
}_e{414 520 453 512 495 502 _c
495 371 _l
440 371 _l
437 406 424 433 402 451 _c
380 469 348 478 306 478 _c
270 478 244 472 226 461 _c
208 449 199 433 199 412 _c
199 394 204 380 214 370 _c
224 360 243 351 271 345 _c
342 327 _l
410 309 457 288 483 263 _c
509 237 522 202 522 157 _c
522 98 501 55 459 28 _c
417 0 352 -13 264 -13 _c
232 -13 197 -10 161 -6 _c
}_e{125 -2 87 5 47 15 _c
_cl}_e}_d
/t{462 0 24 -13 457 680 _sc
99 460 _m
24 460 _l
24 519 _l
99 519 _l
99 680 _l
272 680 _l
272 519 _l
416 519 _l
416 460 _l
272 460 _l
272 142 _l
272 96 275 68 282 57 _c
289 46 302 41 322 41 _c
342 41 358 48 368 62 _c
378 76 383 97 384 127 _c
457 127 _l
454 75 440 38 414 18 _c
388 -2 344 -13 282 -13 _c
210 -13 162 -2 137 20 _c
111 42 99 82 99 142 _c
99 460 _l
_cl}_d
/v{581 0 -17 0 606 519 _sc
223 0 _m
39 460 _l
-17 460 _l
-17 519 _l
280 519 _l
280 460 _l
217 460 _l
348 132 _l
479 460 _l
411 460 _l
411 519 _l
606 519 _l
606 460 _l
546 460 _l
362 0 _l
223 0 _l
_cl}_d
end readonly def

/BuildGlyph
 {exch begin
 CharStrings exch
 2 copy known not{pop /.notdef}if
 true 3 1 roll get exec
 end}_d

/BuildChar {
 1 index /Encoding get exch get
 1 index /BuildGlyph get exec
}_d

FontName currentdict end definefont pop
end
%%EndProlog
mpldict begin
-414 36 translate
1440 720 0 0 clipbox
gsave
0 0 m
1440 0 l
1440 720 l
0 720 l
cl
1.000 setgray
fill
grestore
gsave
180 79.2 m
1296 79.2 l
1296 633.6 l
180 633.6 l
cl
1.000 setgray
fill
grestore
gsave
1116 554.4 180 79.2 clipbox
230.727273 79.2 m
315.272727 79.2 l
315.272727 266.057143 l
230.727273 266.057143 l
cl
1.000 0.000 0.000 setrgbcolor
fill
grestore
gsave
1116 554.4 180 79.2 clipbox
442.090909 79.2 m
526.636364 79.2 l
526.636364 528.342857 l
442.090909 528.342857 l
cl
1.000 0.000 0.000 setrgbcolor
fill
grestore
gsave
1116 554.4 180 79.2 clipbox
653.454545 79.2 m
738 79.2 l
738 593.485714 l
653.454545 593.485714 l
cl
1.000 0.000 0.000 setrgbcolor
fill
grestore
gsave
1116 554.4 180 79.2 clipbox
864.818182 79.2 m
949.363636 79.2 l
949.363636 260.914286 l
864.818182 260.914286 l
cl
1.000 0.000 0.000 setrgbcolor
fill
grestore
gsave
1116 554.4 180 79.2 clipbox
1076.181818 79.2 m
1160.727273 79.2 l
1160.727273 118.628571 l
1076.181818 118.628571 l
cl
1.000 0.000 0.000 setrgbcolor
fill
grestore
gsave
1116 554.4 180 79.2 clipbox
315.272727 79.2 m
399.818182 79.2 l
399.818182 106.628571 l
315.272727 106.628571 l
cl
0.000 0.500 0.000 setrgbcolor
fill
grestore
gsave
1116 554.4 180 79.2 clipbox
526.636364 79.2 m
611.181818 79.2 l
611.181818 305.485714 l
526.636364 305.485714 l
cl
0.000 0.500 0.000 setrgbcolor
fill
grestore
gsave
1116 554.4 180 79.2 clipbox
738 79.2 m
822.545455 79.2 l
822.545455 607.2 l
738 607.2 l
cl
0.000 0.500 0.000 setrgbcolor
fill
grestore
gsave
1116 554.4 180 79.2 clipbox
949.363636 79.2 m
1033.909091 79.2 l
1033.909091 428.914286 l
949.363636 428.914286 l
cl
0.000 0.500 0.000 setrgbcolor
fill
grestore
gsave
1116 554.4 180 79.2 clipbox
1160.727273 79.2 m
1245.272727 79.2 l
1245.272727 319.2 l
1160.727273 319.2 l
cl
0.000 0.500 0.000 setrgbcolor
fill
grestore
0.800 setlinewidth
1 setlinejoin
0 setlinecap
[] 0 setdash
0.000 setgray
gsave
/o {
gsave
newpath
translate
0.8 setlinewidth
1 setlinejoin
0 setlinecap
0 0 m
0 -3.5 l

gsave
0.000 setgray
fill
grestore
stroke
grestore
} bind def
209.591 79.2 o
grestore
/DejaVuSerif-Bold findfont
36.000 scalefont
setfont
gsave
197.067472 44.840625 translate
0.000000 rotate
0.000000 0.000000 m /one glyphshow
grestore
gsave
/o {
gsave
newpath
translate
0.8 setlinewidth
1 setlinejoin
0 setlinecap
0 0 m
0 -3.5 l

gsave
0.000 setgray
fill
grestore
stroke
grestore
} bind def
473.795 79.2 o
grestore
gsave
461.272017 44.840625 translate
0.000000 rotate
0.000000 0.000000 m /two glyphshow
grestore
gsave
/o {
gsave
newpath
translate
0.8 setlinewidth
1 setlinejoin
0 setlinecap
0 0 m
0 -3.5 l

gsave
0.000 setgray
fill
grestore
stroke
grestore
} bind def
738 79.2 o
grestore
gsave
725.476562 44.840625 translate
0.000000 rotate
0.000000 0.000000 m /three glyphshow
grestore
gsave
/o {
gsave
newpath
translate
0.8 setlinewidth
1 setlinejoin
0 setlinecap
0 0 m
0 -3.5 l

gsave
0.000 setgray
fill
grestore
stroke
grestore
} bind def
1002.2 79.2 o
grestore
gsave
989.681108 44.840625 translate
0.000000 rotate
0.000000 0.000000 m /four glyphshow
grestore
gsave
/o {
gsave
newpath
translate
0.8 setlinewidth
1 setlinejoin
0 setlinecap
0 0 m
0 -3.5 l

gsave
0.000 setgray
fill
grestore
stroke
grestore
} bind def
1266.41 79.2 o
grestore
gsave
1253.885653 44.840625 translate
0.000000 rotate
0.000000 0.000000 m /five glyphshow
grestore
/DejaVuSerif findfont
38.000 scalefont
setfont
gsave
683.421875 4.481250 translate
0.000000 rotate
0.000000 0.000000 m /V glyphshow
27.395508 0.000000 m /a glyphshow
50.050781 0.000000 m /l glyphshow
62.204102 0.000000 m /u glyphshow
86.677734 0.000000 m /e glyphshow
grestore
gsave
/o {
gsave
newpath
translate
0.8 setlinewidth
1 setlinejoin
0 setlinecap
0 0 m
-3.5 0 l

gsave
0.000 setgray
fill
grestore
stroke
grestore
} bind def
180 79.2 o
grestore
/DejaVuSerif-Bold findfont
36.000 scalefont
setfont
gsave
110.375000 65.520312 translate
0.000000 rotate
0.000000 0.000000 m /zero glyphshow
25.048828 0.000000 m /period glyphshow
37.582031 0.000000 m /zero glyphshow
grestore
gsave
/o {
gsave
newpath
translate
0.8 setlinewidth
1 setlinejoin
0 setlinecap
0 0 m
-3.5 0 l

gsave
0.000 setgray
fill
grestore
stroke
grestore
} bind def
180 188.914 o
grestore
gsave
110.375000 175.234598 translate
0.000000 rotate
0.000000 0.000000 m /zero glyphshow
25.048828 0.000000 m /period glyphshow
37.582031 0.000000 m /one glyphshow
grestore
gsave
/o {
gsave
newpath
translate
0.8 setlinewidth
1 setlinejoin
0 setlinecap
0 0 m
-3.5 0 l

gsave
0.000 setgray
fill
grestore
stroke
grestore
} bind def
180 298.629 o
grestore
gsave
110.375000 284.948884 translate
0.000000 rotate
0.000000 0.000000 m /zero glyphshow
25.048828 0.000000 m /period glyphshow
37.582031 0.000000 m /two glyphshow
grestore
gsave
/o {
gsave
newpath
translate
0.8 setlinewidth
1 setlinejoin
0 setlinecap
0 0 m
-3.5 0 l

gsave
0.000 setgray
fill
grestore
stroke
grestore
} bind def
180 408.343 o
grestore
gsave
110.375000 394.663170 translate
0.000000 rotate
0.000000 0.000000 m /zero glyphshow
25.048828 0.000000 m /period glyphshow
37.582031 0.000000 m /three glyphshow
grestore
gsave
/o {
gsave
newpath
translate
0.8 setlinewidth
1 setlinejoin
0 setlinecap
0 0 m
-3.5 0 l

gsave
0.000 setgray
fill
grestore
stroke
grestore
} bind def
180 518.057 o
grestore
gsave
110.375000 504.377455 translate
0.000000 rotate
0.000000 0.000000 m /zero glyphshow
25.048828 0.000000 m /period glyphshow
37.582031 0.000000 m /four glyphshow
grestore
gsave
/o {
gsave
newpath
translate
0.8 setlinewidth
1 setlinejoin
0 setlinecap
0 0 m
-3.5 0 l

gsave
0.000 setgray
fill
grestore
stroke
grestore
} bind def
180 627.771 o
grestore
gsave
110.375000 614.091741 translate
0.000000 rotate
0.000000 0.000000 m /zero glyphshow
25.048828 0.000000 m /period glyphshow
37.582031 0.000000 m /five glyphshow
grestore
/DejaVuSerif findfont
38.000 scalefont
setfont
gsave
97.937500 246.814063 translate
90.000000 rotate
0.000000 0.000000 m /P glyphshow
25.552734 0.000000 m /e glyphshow
48.041016 0.000000 m /r glyphshow
66.206055 0.000000 m /c glyphshow
87.488281 0.000000 m /e glyphshow
109.976562 0.000000 m /n glyphshow
134.450195 0.000000 m /t glyphshow
149.720703 0.000000 m /a glyphshow
172.375977 0.000000 m /g glyphshow
196.701172 0.000000 m /e glyphshow
grestore
0 setlinejoin
2 setlinecap
[] 0 setdash
gsave
180 79.2 m
180 633.6 l
stroke
grestore
gsave
1296 79.2 m
1296 633.6 l
stroke
grestore
gsave
180 79.2 m
1296 79.2 l
stroke
grestore
gsave
180 633.6 m
1296 633.6 l
stroke
grestore
gsave
564.812500 639.600000 translate
0.000000 rotate
0.000000 0.000000 m /V glyphshow
27.395508 0.000000 m /a glyphshow
50.050781 0.000000 m /l glyphshow
62.204102 0.000000 m /u glyphshow
86.677734 0.000000 m /e glyphshow
109.166016 0.000000 m /space glyphshow
121.245117 0.000000 m /d glyphshow
145.570312 0.000000 m /i glyphshow
157.723633 0.000000 m /s glyphshow
177.224609 0.000000 m /t glyphshow
192.495117 0.000000 m /r glyphshow
210.660156 0.000000 m /i glyphshow
222.813477 0.000000 m /b glyphshow
247.138672 0.000000 m /u glyphshow
271.612305 0.000000 m /t glyphshow
286.882812 0.000000 m /i glyphshow
299.036133 0.000000 m /o glyphshow
321.914062 0.000000 m /n glyphshow
grestore
1.000 setlinewidth
0 setlinecap
0.800 setgray
gsave
1075.505625 548.5925 m
1290.72 548.5925 l
1294.24 548.5925 1296 550.3525 1296 553.8725 c
1296 628.32 l
1296 631.84 1294.24 633.6 1290.72 633.6 c
1075.505625 633.6 l
1071.985625 633.6 1070.225625 631.84 1070.225625 628.32 c
1070.225625 553.8725 l
1070.225625 550.3525 1071.985625 548.5925 1075.505625 548.5925 c
cl
gsave
1.000 setgray
fill
grestore
stroke
grestore
gsave
1080.785625 603.29 m
1133.585625 603.29 l
1133.585625 621.77 l
1080.785625 621.77 l
cl
1.000 0.000 0.000 setrgbcolor
fill
grestore
0.000 setgray
/DejaVuSerif-Bold findfont
26.400 scalefont
setfont
gsave
1154.705625 603.290000 translate
0.000000 rotate
0.000000 0.000000 m /N glyphshow
24.108398 0.000000 m /e glyphshow
40.888977 0.000000 m /g glyphshow
59.330872 0.000000 m /a glyphshow
76.420532 0.000000 m /t glyphshow
88.603516 0.000000 m /i glyphshow
98.622925 0.000000 m /v glyphshow
113.948242 0.000000 m /e glyphshow
grestore
gsave
1080.785625 564.55875 m
1133.585625 564.55875 l
1133.585625 583.03875 l
1080.785625 583.03875 l
cl
0.000 0.500 0.000 setrgbcolor
fill
grestore
gsave
1154.705625 564.558750 translate
0.000000 rotate
0.000000 0.000000 m /P glyphshow
19.832764 0.000000 m /o glyphshow
37.424683 0.000000 m /s glyphshow
52.273499 0.000000 m /i glyphshow
62.292908 0.000000 m /t glyphshow
74.475891 0.000000 m /i glyphshow
84.495300 0.000000 m /v glyphshow
99.820618 0.000000 m /e glyphshow
grestore

end
showpage
